DJI Products & Spare Parts List - 20170208,,,,,,,,,
Product line,Catalog,,Item Name,Description,Part No. +(SKU),EAN,UPC,USD RRP,Remark
GOGGLES,Goggles,Main,DJI Goggles,,CP.PT.000672,6958265142659,190021288560,$449,
Mavic,Mavic,Main,Mavic Pro,,CP.PT.000500,6958265134029,190021279605,$999,
,,Combo,Mavic Pro Fly More Combo,,CP.PT.000642,6958265138010,190021283442,"$1,299","1. In box:
Mavic Pro *1
(Extra) Intelligent Flight Battery *2
Quick-release Folding Propellers *2
Battery Charging Hub *1
Car Charger *1
Battery to Power Bank Adaptor *1
Mavic Shoulder Bag (Upright) *1
2. The Mavic and accessories in the Mavic Pro Fly More Combo will be packed in one package with just one SKU. There will still be individual single boxes for the drone and each of the accessories within."
,,Spare,Mavic Gimbal Cover,Mavic Part 1,CP.PT.000557,6958265134661,190021282667,$11,
,,,Mavic Battery to Power Bank Adaptor,Mavic Part 2,CP.PT.000558,6958265137693,190021283077,$19,
,,,Mavic RC Cable (Standard Micro USB connector),Mavic Part 3,CP.PT.000559,6958265134609,190021282612,$8,
,,,Mavic RC Cable (Reverse Micro USB connector),Mavic Part 4,CP.PT.000560,6958265134616,190021282629,$8,
,,,Mavic RC Cable (Type-C connector),Mavic Part 5,CP.PT.000561,6958265134647,190021282643,$8,
,,,Mavic Car Charger,Mavic Part 6,CP.PT.000562,6958265134630,190021282636,$49,
,,,Mavic Battery Charging Hub,Mavic Part 7,CP.PT.000563,6958265134692,190021282698,$39,
,,,Mavic Battery Charging Hub (Advanced),Mavic Part 8,CP.PT.000564,6958265134685,190021282681,$55,
,,,Mavic Intelligent Flight Battery (2),Mavic Part 9,CP.PT.000565,6958265134548,190021282551,$89,
,,,Mavic AC Power Adapter (Without AC Cable),Mavic Part 11,CP.PT.000567,6958265134739,190021282735,$19,"The Estimated Ship Date: December 15, 2016"
,,,Mavic AC Power Adapter (Without AC Cable)（BR）,Mavic Part 12,CP.PT.000568,6958265134746,190021282742,$19,"The Estimated Ship Date: Early February, 2017."
,,,Mavic 8330 Quick-release Folding Propellers,Mavic Part 22,CP.PT.000578,6958265134517,190021282513,$9,
,,,Mavic Intelligent Flight Battery (20),Mavic Part 26,CP.PT.000587,6958265134579,190021282582,$89,
,,,Mavic 7728 Quick-release Folding Propellers,Mavic Part 27,CP.PT.000588,6958265134586,190021282599,$9,"The Estimated Ship Date: Feb 15, 2017"
,,,Mavic Remote Controller Monitor Hood,Mavic Part 28,CP.PT.000589,6958265134722,190021282728,$19,"The Estimated Ship Date: December 15, 2016"
,,,Mavic Shoulder Bag (Upright),Mavic Part 30,CP.PT.000591,6958265134715,190021282711,$79,
,,,Mavic Propeller Cage,Mavic Part 31,CP.PT.000592,6958265134678,190021282674,$159,"The Estimated Ship Date: Feb 15, 2017"
,,,Mavic Propeller Guard,Mavic Part 32,CP.PT.000593,6958265134708,190021282704,$15,TBC
,,,Mavic Remote Controller,Mavic Part37,CP.PT.000649,6958265138089,190021283510,$299,
,,,Mavic ND Filters Set (ND4/8/16),Mavic Part 39,CP.PT.000656,6958265140358,190021286092,$35,
,,,Mavic Aircraft Sleeve,Mavic Part 41,CP.PT.000666,6958265142123,190021288034,$7,
,,,"Mavic Pro Aircraft (without RC, charger)",Mavic Pro Part 42,CP.PT.000667,6958265142932,190021288843,$759,
,,,Mavic RC Cable (Lightning connector),,CP.PT.000496,6958265128509,190021015494,$19,
Phantom,Phantom 4,Main,Phantom 4,,CP.PT.000312,6958265112546,190021003750,"$1,199",Stop Supplying
,,,Phantom 4 P+,,CP.PT.000549,6958265138324,190021283763,"$1,799",
,,,Phantom 4 Pro,,CP.PT.000488,6958265138423,190021283862,"$1,499",
,,,Phantom 4 Advanced+,,CP.PT.000698,6958265144875,190021290785,"$1,649",
,,,Phantom4 Advanced,,CP.PT.000689,6958265144486,190021290396,"$1,349",
,,Spare,Phantom 4 GPS Module,Phantom 4 Part 1,CP.PT.000336,6958265112782,190021005990,/,maintenance services ONLY
,,,Phantom 4 Propeller Guard,Phantom 4 Part 2,CP.PT.000599,6958265138485,190021283923,$19,
,,,Phantom 4 Aircraft Power Port Module,Phantom 4 Part 3,CP.PT.000338,6958265112805,190021006010,/,maintenance services ONLY
,,,Phantom 4 Gimbal Camera,Phantom 4 Part 4,CP.PT.000339,6958265112812,190021006027,$379,
,,,Phantom 4 Battery Charging Hub,Phantom 4 Part 8,CP.PT.000343,6958265112836,190021006041,$90,
,,,Phantom 4 100W Power Adaptor (without AC cable),Phantom 4 Part 9,CP.PT.000344,6958265112843,190021006058,$55,
,,,Phantom 4 100W AC Power Adaptor  Cable(USA & CA),Phantom 4 Part 12,CP.PT.000347,6958265112874,190021006089,$5,
,,,Phantom 4 Remote Controller,Phantom 4 Part 18,CP.PT.000353,6958265112935,190021006140,$289,
,,,Phantom 4 Aircraft(Excludes Remote Controller and Battery Charger),Phantom 4 Part 21,CP.PT.000356,6958265112966,190021006171,"$1,099",
,,,Phantom 4 2312S Motor（CCW）,Phantom 4 Part 23,CP.PT.000358,6958265112980,190021006195,/,maintenance services ONLY
,,,Phantom 4 2312S Motor（CW）,Phantom 4 Part 24,CP.PT.000359,6958265112997,190021006201,/,maintenance services ONLY
,,,Phantom 4 9450S Quick-release Propellers (1CW+1CCW),Phantom 4 Part 25,CP.PT.000360,6958265123009,190021006218,$9,
,,,Phantom 4 Landing Gear,Phantom 4 Part 26,CP.PT.000361,6958265123016,190021006225,/,maintenance services ONLY
,,,Phantom 4 Shell,Phantom 4 Part 27,CP.PT.000362,6958265123023,190021006232,/,maintenance services ONLY
,,,Phantom 4 Downward Facing Vision Positioning Module,Phantom 4 Part 28,CP.PT.000363,6958265123030,190021006249,/,maintenance services ONLY
,,,Phantom 4 Mobile Device Holder,Phantom 4 Part 31,CP.PT.000366,6958265123054,190021006263,$30,
,,,Phantom 4 Screw Set,Phantom 4 Part 33,CP.PT.000368,6958265123078,190021006287,/,maintenance services ONLY
,,,Phantom 4 Cable Set,Phantom 4 Part 34,CP.PT.000369,6958265123085,190021006294,/,maintenance services ONLY
,,,Phantom 4 Gimbal Lock,Phantom 4 Part 35,CP.PT.000370,6958265123092,190021006300,$5,
,,,Phantom 4 Flexible Gimbal Flat Cable,Phantom 4 Part 36,CP.PT.000371,6958265123108,190021006317,/,maintenance services ONLY
,,,Phantom 4 UV Filter,Phantom 4 Part 37,CP.PT.000372,6958265123115,190021006324,$38,
,,,Phantom 4 ND4 Filter,Phantom 4 Part 38,CP.PT.000373,6958265123122,190021006331,$29,
,,,Phantom 4 ND8 Filter,Phantom 4 Part 39,CP.PT.000374,6958265123139,190021006348,$29,
,,,Phantom 4 ND16 Filter,Phantom 4 Part 40,CP.PT.000375,6958265123146,190021006355,$29,
,,,Phantom 4 LED,Phantom 4 Part 41,CP.PT.000376,6958265123153,190021006362,/,maintenance services ONLY
,,,Phantom 4 Car Charger Kit,Phantom 4 Part 42,CP.PT.000377,6958265123160,190021006379,$62,
,,,Phantom 4 Main Controller,Phantom 4 Part 43,CP.PT.000378,6958265123177,190021006386,/,maintenance services ONLY
,,,Phantom 4 ESC Center Board（left）,Phantom 4 Part 44,CP.PT.000379,6958265123184,190021006393,/,maintenance services ONLY
,,,Phantom 4 ESC Center Board（right）,Phantom 4 Part 45,CP.PT.000380,6958265123191,190021006409,/,maintenance services ONLY
,,,Phantom 4 LED Cover,Phantom 4 Part 49,CP.PT.000384,6958265123238,190021006447,$2,
,,,Phantom 4 Replica Model,Phantom 4 Part 47,CP.PT.000382,6958265123214,190021006423,/,
,,,Phantom 4 Universal Remote Controller Lanyard（gray）,Phantom 4 Part 50,CP.PT.000385,6958265123320,190021008205,$19,
,,,Phantom 4 Propeller Mounting Plate (CW and CCW),Phantom 4 Part 51,CP.PT.000386,6958265123252,190021006607,$3,
,,,Phantom 4 DJI USB Charger,Phantom 4 Part 55,CP.QT.000269,6958265125133,,$14,
,,,Phantom 4 USB Charger Battery(10PIN) to DC Power Cable,Phantom 4 Part 56,CP.QT.000271,6958265125508,190021010857,$6,
,,,Phantom 4 Wrap Pack (red),Phantom 4 Part 57,CP.PT.000449,6958265128196,,$24,
,,,Phantom 4 Wrap Pack (Silver),Phantom 4 Part 58,CP.PT.000450,6958265128189,,$24,
,,,Phantom 4 Wrap Pack (Camo Green),Phantom 4 Part 59,CP.PT.000580,6958265134494,190021282483,$29,
,,,Phantom 4 Wrap Pack (Camo Yellow ),Phantom 4 Part 60,CP.PT.000581,6958265134500,190021282490,$29,
,,,Phantom 4 Propeller Guard,Phantom 4 Part 62,CP.PT.000599,6958265138485,190021283923,$19,
,,,Phantom 4 Pro Gimbal Camera,Phantom 4 Pro Part 63,CP.PT.000600,6958265138492,190021383937,$699,
,,,Phantom 4 Intelligent Flight 5870mAh Battery,Phantom 4 Part 64,CP.PT.000601,6958265138553,190021283992,$169,MOQ:20
,,,Phantom 4 Intelligent Flight 5870mAh Battery,Phantom 4 Part 65,CP.PT.000602,6958265138546,190021283985,$169,MOQ:2
,,,Phantom 4 Remote Controller (Pro),Phantom 4 Part 66,CP.PT.000603,6958265138508,190021283947,$319,
,,,Phantom 4 Remote Controller (Pro+),Phantom 4 Part 67,CP.PT.000604,6958265138515,190021283954,$599,
,,,Phantom 4 Aircraft(Excludes Remote Controller and Battery Charger) (Pro/Pro+),Phantom 4 Part 70,CP.PT.000607,6958265138591,190021284036,"$1,349",
,,,Phantom 4 Pro Gimbal Lock,Phantom 4 Pro Part 71,CP.PT.000608,6958265138607,190021284043,$9,
,,,Phantom 4 Pro UV Filter,Phantom 4 Pro Part 72,CP.PT.000609,6958265138584,190021284029,$39,
,,,Phantom 4 ND4 Filter (Pro/Pro+),Phantom 4 Part 73,CP.PT.000610,6958265138577,190021284012,$29,
,,,Phantom 4 ND8 Filter (Pro/Pro+),Phantom 4 Part 74,CP.PT.000611,6958265138614,190021284050,$29,
,,,Phantom 4 ND16 Filter (Pro/Pro+),Phantom 4 Part 75,CP.PT.000612,6958265138638,190021284074,$29,
,,,Phantom 4 Pro LED Cover,Phantom 4 Pro Part 78,CP.PT.000615,6958265138645,190021284081,$9,
,,,Phantom 4 Pro Propeller Mounting Plate (CW and CCW),Phantom 4 Pro Part 79,CP.PT.000616,6958265138676,190021284111,$9,
,,,Multifunctional Backpack for Phantom Series,,CP.QT.000695,6958265137747,190021283138,$199,This Multifunctional Backpack fits all of the DJI Phantom Series. While maintaining the look and quality of the previous version it is lighter and more space efficient.
,Phantom 3,Main,Phantom 3 Professional,,CP.PT.000181,6958265117398,190021000018,$799,
,,Main,Phantom 3 Advanced,,CP.PT.000160,6958265117220,190021000001,$799,
,,Combo,Phantom 3 Advanced + 1 Extra Battery,,,,,$859,MOQ:20
,,Main,Phantom 3 Standard,,CP.PT.000168,6958265117305,190021000285,$499,
,,Spare,DJI Phantom Backpack,,BC.QT.000002,6958265112324,190021001664,$229,Compatible with all Phantom Series
,,,Phantom 3 GPS Module,Phantom 3 Part 1,CP.PT.000187,6958265117459,,/,maintenance services ONLY
,,,Phantom 3 Propeller Guard,Phantom 3 Part 2,CP.PT.000188,6958265117466,190021000094,$19,
,,,Phantom 3 Antenna (4pcs),Phantom 3 Part 3,CP.PT.000189,6958265117473,,/,maintenance services ONLY
,,,Phantom 3 Aircraft Power Port Module,Phantom 3 Part 4,CP.PT.000190,6958265117480,,/,maintenance services ONLY
,,,Phantom 3 4K Camera,Phantom 3 Part 5,CP.PT.000191,6958265117497,190021000025,$349,
,,,Phantom 3 HD Camera,Phantom 3 Part 6,CP.PT.000192,6958265117503,190021000032,$259,
,,,Phantom 3 2312 Motor (CCW),Phantom 3 Part 7,CP.PT.000193,6958265117510,,/,maintenance services ONLY
,,,Phantom 3 2312 Motor (CW),Phantom 3 Part 8,CP.PT.000194,6958265117527,,/,maintenance services ONLY
,,,Phantom 3 9450 Self-tightening Propeller (1CW+1CCW),Phantom 3 Part 9,CP.PT.000195,6958265117534,190021000087,$6,
,,,Phantom 3 Remote Controller,Phantom 3 Part 10,CP.PT.000196,6958265117541,190021000049,$279,
,,,Phantom 3 Compass,Phantom 3 Part 11,CP.PT.000197,6958265117558,,/,maintenance services ONLY
,,,Phantom 3 100W Battery Charger (USA & CA),Phantom 3 Part 15,CP.PT.000201,6958265117596,190021000063,/,maintenance services ONLY
,,,Phantom 3 57W Battery Charger (USA & CA),Phantom 3 Part 23,CP.PT.000215,6958265117732,,/,maintenance services ONLY
,,,Phantom 3 Landing Gear,Phantom 3 Part 29,CP.PT.000216,6958265117749,,/,maintenance services ONLY
,,,Phantom 3 Shell (Includes Top & Bottom Covers) (Pro/Adv),Phantom 3 Part 30,,,,/,maintenance services ONLY
,,,Phantom 3 ESC Center Board & MC (Pro/Adv),Phantom 3 Part 33,CP.PT.000219,6958265117770,,/,maintenance services ONLY
,,,"Phantom 3 Aircraft (Excludes Remote Controller, Camera, Battery and Battery Charger ) (Pro/Adv)",Phantom 3 Part 34,CP.PT.000220,6958265117787,,$349,
,,,Phantom 3 OFDM Receiver Module (Pro/Adv),Phantom 3 Part 35,CP.PT.000221,6958265117794,,/,maintenance services ONLY
,,,Phantom 3 Vision Positioning Module (Pro/Adv),Phantom 3 Part 36,CP.PT.000222,6958265117800,,/,maintenance services ONLY
,,,Phantom 3 Vision Positioning Module & OFDM Module (Pro/Adv),Phantom 3 Part 37,CP.PT.000223,6958265117817,,/,maintenance services ONLY
,,,Phantom 3 Mobile Device Holder,Phantom 3 Part 38,CP.PT.000224,6958265117824,190021001626,$30,
,,,Phantom 3 Camera Vibration Absorbing Board (Pro/Adv),Phantom 3 Part 39,CP.PT.000225,6958265117831,,/,maintenance services ONLY
,,,Phantom 3 Vibration Absorbing Rubber Ball,Phantom 3 Part 40,CP.PT.000226,6958265117848,,/,maintenance services ONLY
,,,Phantom 3 Screw Set,Phantom 3 Part 41,CP.PT.000227,6958265117855,,/,maintenance services ONLY
,,,Phantom 3 Cable Set,Phantom 3 Part 42,CP.PT.000228,6958265117862,,/,maintenance services ONLY
,,,Phantom 3 Sticker Set,Phantom 3 Part 43,CP.PT.000229,6958265117879,,$6,
,,,Phantom 3 Gimbal Lock,Phantom 3 Part 44,CP.PT.000230,6958265117886,,$5,
,,,Phantom 3 UV Filter (Pro/Adv),Phantom 3 Part 45,CP.PT.000231,6958265117893,190021000735,$38,
,,,Phantom 3 ND4 Filter (Pro/Adv),Phantom 3 Part 46,CP.PT.000232,6958265117909,190021000742,$29,
,,,Phantom 3 USB Port Cable,Phantom 3 Part 47,CP.PT.000233,6958265117916,,/,maintenance services ONLY
,,,Phantom 3 Flexible Gimbal Flat Cable,Phantom 3 Part 49,CP.PT.000235,6958265117930,,/,maintenance services ONLY
,,,Phantom 3 Battery Charging Hub (Pro/Adv),Phantom 3 Part 53,CP.PT.000240,6958265117992,190021000759,$90,
,,,Phantom 3 HDMI Output Module (Pro/Adv),Phantom 3 Part 54,CP.PT.000241,6958265119507,190021000766,$99,
,,,Phantom 3 ND8 Filter (Pro/Adv),Phantom 3 Part 55,CP.PT.000242,6958265119514,190021000773,$29,
,,,Phantom 3 ND16 Filter (Pro/Adv),Phantom 3 Part 56,CP.PT.000243,6958265119521,190021000780,$29,
,,,Phantom 3 GPS Module(Sta),Phantom 3 Part 67,CP.PT.000280,6958265119637,190021000384,/,maintenance services ONLY
,,,Phantom 3 Receiver Antenna 5.8G(Sta)(2pcs),Phantom 3 Part 69,CP.PT.000281,6958265119651,190021000407,/,maintenance services ONLY
,,,Phantom 3 Landing Gear(Sta),Phantom 3 Part 71,CP.PT.000255,6958265119675,190021000421,$12,
,,,Phantom 3 Shell(Includes Top & Bottom Covers)(Sta),Phantom 3 Part 72,CP.PT.000256,6958265119682,190021000438,/,maintenance services ONLY
,,,Phantom 3 Camera(Sta),Phantom 3 Part 73,CP.PT.000257,6958265119699,190021000445,/,maintenance services ONLY
,,,Phantom 3 Remote Controller 5.8G(Sta),Phantom 3 Part 74,CP.PT.000258,6958265119705,190021000452,$99,
,,,Phantom 3 ESC Center Board & MC & Receiver 5.8G(Sta),Phantom 3 Part 76,CP.PT.000260,6958265119729,190021000476,/,maintenance services ONLY
,,,"Phantom 3 Aircraft 5.8G(Excludes Remote Controller, Camera, Battery and Battery Charger )(Sta)",Phantom 3 Part 78,CP.PT.000262,6958265119743,190021000490,$189,
,,,Phantom 3 Mobile Device Holder (Sta),Phantom 3 Part 80,CP.PT.000264,6958265119934,190021000797,$19,
,,,Phantom 3 Cable Set (Sta),Phantom 3 Part 81,CP.PT.000265,6958265119941,190021000803,/,maintenance services ONLY
,,,Phantom 3 Sticker Set (Sta),Phantom 3 Part 82,CP.PT.000266,6958265119958,190021000810,$9,
,,,Phantom 3 Camera Vibration Absorbing Board (Sta),Phantom 3 Part 83,CP.PT.000267,6958265119965,190021000827,/,maintenance services ONLY
,,,Phantom 3 Gimbal Lock(Sta),Phantom 3 Part 84,CP.PT.000268,6958265119804,190021000551,$5,
,,,Phantom 3 Flexible Gimbal Flat Cable(Sta),Phantom 3 Part 85,CP.PT.000269,6958265119811,190021000568,/,maintenance services ONLY
,,,Phantom 3 2312A Motor（CCW）,Phantom 3 Part 94,CP.PT.000278,6958265119903,190021000650,/,for New P3A/P3P
,,,Phantom 3 2312A Motor（CW）,Phantom 3 Part 95,CP.PT.000279,6958265119910,190021000667,/,for New P3A/P3P
,,,Phantom 3 ESC Center Board & MC V2 (Pro/Adv),Phantom 3 Part 96,CP.PT.000283,6958265119927,190021000674,/,maintenance services ONLY
,,,Phantom 3 2.4G Antenna(Sta),Phantom 3 Part 97,CP.PT.000284,6958265119972,190021000865,/,maintenance services ONLY
,,,Phantom 3 Replica Model ( Pro),Phantom 3 Part 98,CP.PT.000286,6958265119996,190021001176,/,
,,,Phantom 3 LED (Sta),Phantom 3 Part 101,CP.PT.000288,6958265112287,190021001497,/,maintenance services ONLY
,,,Phantom 3 LED (Pro/Adv),Phantom 3 Part 102,CP.PT.000289,6958265112294,190021001503,/,maintenance services ONLY
,,,Phantom 3 Center Board Compartment,Phantom 3 Part 106,CP.PT.000293,6958265112300,190021001640,/,maintenance services ONLY
,,,Phantom 3 Car Charger Kit,Phantom 3 Part 109,CP.PT.000297,6958265112362,190021002296,$85,
,,,Phantom 3 Aircraft(Excludes Remote Controller and Battery Charger)(Pro),Phantom 3 Part 110,CP.PT.000299,6958265112409,190021003491,$709,
,,,Phantom 3 Aircraft(Excludes Remote Controller and Battery Charger)(Adv),Phantom 3 Part 111,CP.PT.000300,6958265112416,190021003507,$559,
,,,Phantom 3 Aircraft 5.8G (Excludes Remote Controller and Battery Charger)(Sta),Phantom 3 Part 112,CP.PT.000301,6958265112423,190021003514,$409,
,,,Phantom 3 Damping Rod,Phantom 3 Part 117,CP.PT.000319,6958265112522,190021003736,$2,
,,,Phantom 3 Camera (4K),Phantom 3 Part 119,CP.PT.000321,6958265112638,190021004184,$299,
,,,Phantom 3 Aircraft(Excludes Remote Controller and Battery Charger)(4K),Phantom 3 Part 120,CP.PT.000322,6958265112645,190021004191,$559,
,,,"Phantom 3 Aircraft (Excludes Remote Controller, Camera, Battery and Battery Charger ) (4K)",Phantom 3 Part 121,CP.PT.000323,6958265112652,190021004207,$249,
,,,Phantom 3 ESC Center Board & MC & Receiver 5.8G(4K),Phantom 3 Part 123,CP.PT.000325,6958265112676,190021004221,/,maintenance services ONLY
,,,Phantom 3 WiFi Video Downlink Air Unit Module(4K),Phantom 3 Part 124,CP.PT.000326,6958265112683,190021004238,/,maintenance services ONLY
,,,Phantom 3 Remote Controller(4K)(EN),Phantom 3 Part 125,CP.PT.000327,6958265112690,190021004245,$219,
,,,Phantom 3 Battery Heater,Phantom 3 Part 127,CP.PT.000329,6958265112775,190021005846,$20,
,,,Phantom 3 Battery,Phantom 3 Part 133 / 134,CP.PT.000397,6958265123351,190021008861,$149,MOQ: 20
,,,Phantom 3 Battery,Phantom 3 Part 134,CP.PT.000398,6958265123368,190021008878,$149,
,,,Phantom 3 USB Charger Battery （2PIN）to DC Power Cable,Phantom 3 Part 135,CP.QT.000272,6958265125515,190021010864,$6,
,Phantom 2 Vision,Spare,Phantom 2 Vision Battery Charger,Phantom 2 Vision Part 2,CP.PT.000049,6958265109430,,$39,
,,,Phantom 2 Vision GPS Module,Phantom 2 Vision Part 11,CP.PT.000072,6958265109638,,$159,
,,,Phantom 2 Vision Compass,Phantom 2 Vision Part 12,CP.PT.000073,6958265109645,,$19,
,,,"Phantom 2 Vision Craft(excl. Remote Controller, Wi-Fi Range Extender, Battery, Battery Charger)",Phantom 2 Vision Part 13,CP.PT.000054,6958265109492,,$999,
,,,"Phantom 2 Vision Camera Unit (incl. Camera, OSD Module, Wi-Fi Module, Servo, Underside Damping Bracket )",Phantom 2 Vision Part 14,CP.PT.000074,6958265109652,,$499,
,,,Phantom 2 Vision Radio Controller,Phantom 2 Vision Part 15,CP.PT.000056,6958265109508,,$95,
,,,Phantom 2 Vision Receiver,Phantom 2 Vision Part 16,CP.PT.000057,6958265109515,,$29,
,,,Phantom 2 Vision Wi-Fi Range Extender,Phantom 2 Vision Part 17,CP.PT.000058,6958265109522,,$99,
,,,Phantom 2 Vision FPV Phone Holder,Phantom 2 Vision Part 18,CP.PT.000059,6958265109539,,$19,
,,,Phantom 2 Vision Damping Brackets,Phantom 2 Vision Part 19,CP.PT.000060,6958265109546,,$9,
,,,Phantom 2 Vision Rubber Damper(4pcs),Phantom 2 Vision Part 20,CP.PT.000061,6958265109553,,$3,
,,,Phantom 2 Vision USB Port Cover(10pcs),Phantom 2 Vision Part 24,CP.PT.000062,6958265109560,,$3,
,,,Phantom 2 Vision Camera Lens Cover(10pcs),Phantom 2 Vision Part 25,CP.PT.000063,6958265109577,,$5,
,,,Phantom 2 Vision Landing Gear Pad(96pcs),Phantom 2 Vision Part 26,CP.PT.000064,6958265109584,,$48,
,,,Phantom 2 Vision  Lens Filter Mounting Kit,Phantom 2 Vision Part 27,CP.PT.000078,6958265109799,,$15,
,,,Phantom 2 Vision Landing Gear,Phantom 2 Vision Part 4,CP.PT.000069,6958265109607,,$6,
,,,Phantom 2 Vision ESC,Phantom 2 Vision Part 7,CP.PT.000053,6958265109485,,$19,
,,,Phantom 2 Vision Shell,Phantom 2 Vision Part 8,CP.PT.000050,6958265109454,,$59,
,,,Phantom 2 Vision MC,Phantom 2 Vision Part 9,CP.PT.000051,6958265109461,,$229,
,,,Phantom 2 Vision Central Circuit Board,Phantom 2 Vision Part 10,CP.PT.000052,6958265109478,,$59,
,,,Phantom 2 Vision Screw Pack,Phantom 2 Vision Part 21,CP.PT.000075,6958265109669,,$5,
,,,Phantom 2 Vision Cable Pack,Phantom 2 Vision Part 22,CP.PT.000076,6958265109676,,$9,
,,,Phantom 2 Vision Sticker Pack(10sets),Phantom 2 Vision Part 23,CP.PT.000066,6958265109591,,$29,
,,,Phantom 2 Vision Prop Guard  ( for P2&P2V),Phantom 2 Vision Part 28,CP.PT.000091,6958265109843,,$19,
,,,Phantom 2 Vision Battery,Phantom 2 Vision Part 29 / 30,CP.PT.000395,6958265123337,190021008847,$129,
,Phantom 2 Vision+,Spare,Phantom 2 Vision + USB Interface (for P2&P2V&P2V+),Phantom 2 Vision + Part 13,CP.PT.000123,6958265112065,,,
,,,Phantom 2 Vision + Wi-Fi Range Extender,Phantom 2 Vision + Part 1,CP.PT.000108,6958265109911,,$129,
,,,"Phantom 2 Vision + Camera Unit (including Gimbal, Gimbal Holder, Camera Cover, Damping Rubber & Drop Protection Kit)",Phantom 2 Vision + Part 2,CP.PT.000109,6958265109928,,$679,
,,,Phantom 2 Vision + Wi-Fi Signal Transmission Module,Phantom 2 Vision + Part 3,CP.PT.000110,6958265109935,,$189,
,,,Phantom 2 Vision + Landing Gear,Phantom 2 Vision + Part 4,CP.PT.000111,6958265109942,,$9,
,,,Phantom 2 Vision + Gimbal Holder & Camera Cover,Phantom 2 Vision + Part 5,CP.PT.000112,6958265109959,,$2,
,,,Phantom 2 Vision + Gimbal Mounting Bracket,Phantom 2 Vision + Part 6,CP.PT.000113,6958265109966,,$15,
,,,Phantom 2 Vision + Damping Rubber&Drop Protection Kit,Phantom 2 Vision + Part 7,CP.PT.000114,6958265109973,,$4,
,,,Phantom 2 Vision + Cable Pack,Phantom 2 Vision + Part 8,CP.PT.000115,6958265109980,,$29,
,,,"Phantom 2 Vision + Craft(excl. Camera Unit, Remote Controller, Wi-Fi Range Extender, Battery, Battery Charger)",Phantom 2 Vision + Part 10,CP.PT.000120,6958265112027,,$669,
,,,Phantom 2 Vision + Receiver,Phantom 2 Vision + Part 11,CP.PT.000121,6958265112010,,$39,
,,,"Phantom 2 Vision + Remote Control（left dial, built-in Lipo battery）",Phantom 2 Vision + Part 16,CP.PT.000131,6958265112157,,$99,
,,,Phantom 2 Vision + Compass (anti-static),Phantom 2 Vision + Part 18,CP.PT.000134,6958265112188,,$15,
,Phantom 2,Main,Phantom 2,,CP.PT.000083,6958265112195,,,
,,Combo,Phantom 2 + H4-3D,,,,,,In one package
,,Spare,Phantom 2 GPS Module,Phantom 2 Part 1,CP.PT.000093,6958265109720,,,"Phantom 2 GPS module cannot be used with Naza M, Phantom, Phantom FC40 or Phantom 2 vision"
,,,Phantom 2 CAN Module,Phantom 2 Part 2,CP.PT.000094,6958265109737,,,
,,,Phantom 2 Cable Pack,Phantom 2 Part 3,CP.PT.000095,6958265109744,,,1pcs 180mm 8pin cable 1pcs 220mm 4pin JST CAN cable 1pcs 200mm Compass cable
,,,Phantom 2 Receiver,Phantom 2 Part 5,CP.PT.000097,6958265109768,,,For Phantom 2 only.
,,,Phantom 2 Internal Power plug  ( for P2&P2V),Phantom 2 Part 6,CP.PT.000098,6958265109775,,,
,,,Phantom 2 Camera Mounting Brackets,Phantom 2 Part 7,CP.PT.000092,6958265109782,,,Addon for GoPro mounting
,,,Phantom 2 Car Charger Kit(3S)  ( for P2&P2V),Phantom 2 Part 8,CP.PT.000099,6958265109850,,,Addon.Convertor included.
,,,Phantom 2 FPV Cable&hub,Phantom 2 Part 9,CP.PT.0000102,6958265109751,,,
,,,Phantom 2 2312 Motor（CCW）,Phantom 2 Part 11,CP.PT.000126,6958265112102,,,
,,,Phantom 2 2312 Motor（CW）,Phantom 2 Part 12,CP.PT.000127,6958265112119,,,
,,,Phantom 2 9450 Self-tightening Propellers (1CW+1CCW),Phantom 2 Part 13,CP.PT.000128,6958265112126,,,
,,,"Phantom 2 Remote Control（left dial, built-in Lipo battery）",Phantom 2 Part 14,CP.PT.000129,6958265112133,,,
,,,"Phantom 2 Compass (anti-static, for P2&P2V)",Phantom 2 Part 16,CP.PT.000133,6958265112171,,,
,Phantom 5.8G,Spare,FC40 LED,PHFC40 Part 1,,,,$19,
,,,FC40 Shell,PHFC40 Part 2,,,,$55,
Osmo,Osmo Mobile,Main,OSMO MOBILE,,CP.ZM.000449,6958265136023,190021279315,$299,"Get a base and regular battery** for free,whcich will be effective from 00:00 on December 12th, 2016 to 23:59 on January 4th, 2017 EST (Eastern Standard Time)."
,,,Osmo Mobile (Silver),,CP.ZM.000499,6958265139130,190021284777,$299,
,,,OSMO MOBILE Part 2 Power Cable,OSMO MOBILE Part 2,CP.ZM.000477,6958265141430,190021287327,$15,
,,,OSMO MOBILE Part 4 Carrying Case,OSMO MOBILE Part 4,CP.ZM.000491,6958265141423,190021287310,$29,
,,,OSMO MOBILE Part 7 DJI 10W USB Power Adapter (NA),OSMO MOBILE Part 7,CP.ZM.000510,6958265141386,190021287273,$10,
,,Spare,OSMO MOBILE Tabletop Display,,CP.QT.000697,6958265136825,190021281653,/,MOQ: 2
,,,OSMO MOBILE Part3 Dummy,,CP.ZM.000484,6958265136832,190021281660,/,
,Osmo & Osmo+,Main,OSMO+,,CP.ZM.000425,6958265136061,190021281448,$649,"Get a high capacity battery* for free, whcich will be effective from 00:00 on December 12th, 2016 to 23:59 on January 4th, 2017 EST (Eastern Standard Time)."
,,,OSMO,,CP.ZM.000160,6958265104350,190021001329,$539,buy 1 OSMO get 2 batteries
,,,"OSMO Handle Kit (Including Intelligent Battery, Charger and Phone Holder. Gimbal and Camera excluded.) (USA & Canada)",,CP.ZM.000261,6958265104794,190021001916,$269,
,,Combo,OSMO PRO COMBO,,,,,"$1,999","All accessories within are packaged and shipped out separately.
ZENMUSE X5 x 1
OSMO PART 6 Universal Mount x 1
OSMO PART 8 Phone Holder x 1
OSMO PART 17 Handle Kit (Intelligent Battery, Charger, Phone Holder, Gimbal and Camera excluded.) (USA & Canada) x 1
OSMO PART 37 X5 Adapter x 1
OSMO PART 44 DJI FM-15 FlexiMic x 1
OSMO PART 49 External Battery Extender x 1
OSMO PART 77 Carrying Case (OSMO PRO) x 1
OSMO PART 55 Intelligent Battery (High Capacity) x 4
OSMO PART 58 Quad Charging System (Adapter Excluded) x 1
OSMO PART 68 57W Power Adapter(NA) x 1"
,,,OSMO RAW COMBO,,,,,"$3,699","1. Buy one get an extra Zenmuse X5R Part2 SSD(512GB) for free
2. All accessories within are packaged and shipped out separately.
ZENMUSE X5R x 1
OSMO PART 6 Universal Mount x 1
OSMO PART 8 Phone Holder x 1
OSMO PART 17 Handle Kit (Intelligent Battery, Charger, Phone Holder, Gimbal and Camera excluded.) (USA & Canada) x 1
OSMO PART 37 X5 Adapter x 1
OSMO PART 44 DJI FM-15 FlexiMic x 1
OSMO PART 49 External Battery Extender x 1
OSMO PART 77 Carrying Case (OSMO RAW) x 1
OSMO PART 55 Intelligent Battery (High Capacity) x 4
OSMO PART 58 Quad Charging System (Adapter Excluded) x1 OSMO PART 68 57W Power Adapter(NA) x 1
Zenmuse X5R Part2 SSD(512GB) x 1"
,,,OSMO + OSMO Sport Accessory Kit,,,,,$799,"Including Osmo, OSMO Sport Accessory Kit"
,,,Osmo+ & Sport Accessory Kit,,,,,$879,"MOQ: 15. Sport Accessory Kit including 2pcs OSMO Part 55 Intelligent Battery
(Rated capacity of the battery is 1225mAh), 1pcs OSMO Part 1 Extension Stick,1pcs OSMO Part 2 Bike Mount,1pcs OSMO Part 3 Tripod,1pcs OSMO Part 4 Car Mount,1pcs OSMO Part 5 Straight Extension Arm,1pcs OSMO Part 46 Osmo Base"
,,Spare,OSMO Extension Stick,Osmo Part 1,CP.ZM.000227,6958265104510,190021001541,$55,
,,,OSMO Bike Mount,Osmo Part 2,CP.ZM.000216,6958265104527,190021001558,$49,
,,,OSMO Tripod,Osmo Part 3,CP.ZM.000235,6958265104534,190021001565,$55,
,,,OSMO Car Mount,Osmo Part 4,CP.ZM.000237,6958265104541,190021001602,$75,
,,,OSMO Straight Extension Arm,Osmo Part 5,CP.ZM.000239,6958265104572,190021001770,$25,
,,,OSMO Universal Mount,Osmo Part 6,CP.ZM.000240,6958265104589,190021001787,$25,
,,,OSMO Phone Holder,Osmo Part 8,CP.ZM.000242,6958265104602,190021001862,$49,
,,,"OSMO Handle (Excluding Intelligent Battery, Charger, Phone Holder, Gimbal and Camera.) (USA & Canada)",Osmo Part 17,CP.ZM.000252,6958265104695,190021001886,$219,
,,,OSMO Gimbal and Camera,Osmo Part 25,CP.ZM.000251,6958265104770,190021001893,$439,
,,,OSMO Carry Case,Osmo Part 26,CP.ZM.000260,6958265104787,190021001909,$29,
,,,OSMO Articulating Locking Arm,Osmo Part 35,CP.ZM.000279,6958265104961,190021003170,$39,
,,,OSMO Triple Mount Suction Cup Base,Osmo Part 36,CP.ZM.000280,6958265104978,190021003187,$45,
,,,OSMO X5 Adapter,Osmo Part 37,CP.ZM.000285,6958265122118,190021004016,$99,
,,,OSMO Quick Release 360 Mic Mount,Osmo Part 38,CP.ZM.000307,6958265122125,190021005112,$9,
,,,OSMO- Inspire 1 Gimbal Cover,Osmo Part 39,CP.ZM.000308,6958265122132,190021005129,$3,
,,,OSMO Accessory for Universal Mount - Rotatable Cold Shoe for Universal Mount,Osmo Part 40,CP.ZM.000310,6958265122149,190021005136,$9,
,,,"OSMO Accessory for Universal Mount - 1/4"" & 3/8"" Mounting Adapter for Universal Mount",Osmo Part 41,CP.ZM.000311,6958265122156,190021005143,$7,
,,,OSMO Osmo Dummy,Osmo Part 43,CP.ZM.000284,6958265122170,190021005259,/,
,,,OSMO DJI FM-15 FlexiMic,Osmo Part 44,CP.ZM.000321,6958265122187,190021005266,$10,
,,,OSMO RODE VideoMicro & OSMO 360 Quick Release Mic Mount,Osmo Part 45,CP.ZM.000324,6958265122491,190021005709,$65,
,,,OSMO Osmo Base,Osmo Part 46,CP.ZM.000341,6958265122507,190021005716,$10,
,,,OSMO Z-Axis,Osmo Part 47,CP.ZM.000344,6958265122859,190021006928,$129,
,,,OSMO External Battery Extender,Osmo Part 49,CP.ZM.000360,6958265122835,190021006744,$25,
,,,OSMO Battery(2 PIN) to DC Power Cable,Osmo Part 50,CP.ZM.000364,6958265122866,190021007659,$5,
,,,OSMO Battery(10 PIN-A) to DC Power Cable,Osmo Part 51,CP.ZM.000363,6958265122873,190021007666,$5,
,,,OSMO Battery Checker,Osmo Part 52,CP.ZM.000366,6958265122897,190021007680,$9,
,,,OSMO Intelligent Battery,Osmo Part 53 / 54,CP.ZM.000370,6958265122903,190021008571,$35,MOQ: 30
,,,OSMO Intelligent Battery (High Capacity),Osmo Part 55 / 56,CP.ZM.000376,6958265122972,190021009325,$42,MOQ: 2
,,,OSMO OSMO PRO/RAW Z-Axis,Osmo Part 57,CP.ZM.000412,6958265127359,190021010758,$179,MOQ: 30
,,,OSMO Quad Charging System (Adapter Excluded),Osmo Part 58,CP.ZM.000401,6958265127120,190021010055,$25,MOQ: 2
,,,OSMO DJI FOCUS-OSMO Pro/Raw Adaptor Cable(2m),Osmo Part 66,CP.ZM.000411,6958265127342,190021010741,$39,
,,,OSMO DJI FOCUS-OSMO Pro/Raw Adaptor Cable(0.2m),Osmo Part 67,CP.ZM.000410,6958265127335,190021010734,$29,
,,,OSMO 57W Power Adapter(NA),Osmo Part 68,CP.ZM.000413,6958265127366,190021011588,$39,
,,,OSMO DJI Focus Handwheel,Osmo Part 76,CP.ZM.000456,6958265127670,190021014565,$299,
,,,OSMO Carrying Case (OSMO PRO),Osmo Part 77,CP.ZM.000454,6958265127700,190021015067,$149,
,,,OSMO Carrying Case (OSMO RAW),Osmo Part 78,CP.ZM.000455,6958265127717,190021015074,$149,
,,,OSMO Chest Strap Mount,Osmo Part 79,CP.ZM.000464,6958265136009,190021279148,$59,
,,,OSMO OSMO Charger (NA),Osmo Part 80,CP.ZM.000467,6958265127793,190021055715,$19,
,,,OSMO Sticky Mount,Osmo Part 88,CP.ZM.000475,6958265136016,190021279155,$45,
,,,OSMO Gimbal Remote Extension,Osmo Part 89,CP.ZM.000478,6958265136054,190021281141,$49,
,,,OSMO ND4 Filter (OSMO +/Z3),Osmo Part 90,CP.ZM.000488,6958265136795,190021281615,$29,
,,,OSMO ND8 Filter (OSMO +/Z3),Osmo Part 91,CP.ZM.000489,6958265136801,190021281622,$29,
,,,OSMO ND16Filter (OSMO +/Z3),Osmo Part 92,CP.ZM.000490,6958265136818,190021281646,$29,
,,,OSMO Dummy(OSMO +),Osmo Part 93,CP.ZM.000493,6958265137730,190021283121,/,
,,,ZENMUSE X3 Zoom,,CP.BX.000112,6958265121913,190021281684,$499,
,,,Gear Backpack - Medium,,CP.QT.000069,7290105218025,719821367383,$90,
,,,Osmo table top display,,CP.QT.000068,6958265108822,190021006775,/,
,,,Manfrotto Lumi LED,,CP.QT.000056,8024221640779,719821384571,$90,
Inspire,Inspire2,Main,Inspire 2 Combo Original Price,,CP.BX.000185,6958265141218,190021287105,"$6,198","1) The combo includes 1 PCS Inspire 2 and 1 PCS ZENMUSE X5S, the CinemaDNG and Apple ProRes License Key are installed in Inspire 2 drone immediately ,which is more convenient for customers; 
2) The Inspire 2 and ZENMUSE X5S in the combo are packed and delivered separately；"
,,,Inspire 2 （NA）,,CP.BX.000166,6958265121937,190021286283,"$2,999","1. Inspire 2 is without gimbal camera included, the gimbal camera need to be purchased separately.
2. No license is included in Inspire 2 drone if the customer buy it separately , the license could be purchased in DJI online store.
"
,,Spare,Inspire 2 DJI CINESSD（120G）,Inspire 2 Part 1,CP.BX.000175,6958265140990,190021286887,$299,
,,,Inspire 2 DJI CINESSD（480G）,Inspire 2 Part 2,CP.BX.000176,6958265141003,190021286894,$899,
,,,Inspire 2 DJI CINESSD STATION,Inspire 2 Part 3,CP.BX.000177,6958265141010,190021286900,$149,
,,,Inspire 2 Remote Controller,Inspire 2 Part 4,CP.BX.000178,6958265140471,190021286368,$549,
,,,Inspire 2 TB50 Intelligent Flight Battery,Inspire 2 Part 5,CP.BX.000179,6958265140488,190021286375,$159,MOQ:2
,,,Inspire 2 DJI CINESSD（240G）,Inspire 2 Part 18,,,,$499,
,,,Inspire 2 1550T Quick Release Propellers,Inspire 2 Part 6,CP.BX.000180,6958265140495,190021286382,$15,
,,,Inspire 2 180W Power Adaptor (without AC cable）,Inspire 2 Part 7,CP.BX.000181,6958265140501,190021286399,$69,
,,,Inspire 2 Intelligent Flight Battery Charging Hub,Inspire 2 Part 8,CP.BX.000182,6958265140518,190021286405,$99,
,,,Inspire 2 Remote Controller（JP）,Inspire 2 Part 9,CP.BX.000183,6958265140976,190021286863,$549,
,,,Inspire 2 1550T Quick Release Propeller Mounting Plates,Inspire 2 Part 10,CP.BX.000184,6958265140983,190021286870,$9,
,,,Inspire 2 Quick Release Propellers(for high-altitude operations),Inspire 2 Part 11,CP.BX.000193,6958265141294,190021287181,$22,
,,,Inspire 2 Remote Controller Charging Cable,Inspire 2 Part 12,CP.BX.000194,6958265141300,190021287198,$12,
,,,Inspire 2 Carrying Case,Inspire 2 Part 13,CP.BX.000195,6958265141317,190021287204,$249,
,,,Inspire 2 DJI Handheld Focus Stand-remote  controller stand,Inspire 2 Part 14,CP.BX.000200,6958265141522,190021287419,$49,
,,,Inspire 2 GPS module for remote control,Inspire 2 Part 15,CP.BX.000199,6958265141539,190021287433,$29,
,,,"Inspire 2 C1 Remote Controller LIGHTNING TO USB CABLE（JP）（260mm）（P3A,P3P ,P4 ,P4P ,Inspire Series）",Inspire 2 Part 22,CP.BX.000208,6958265142130,190021288041,$19,
,,,"Inspire 2 C1 Remote Controller LIGHTNING TO USB CABLE（260mm）（P3A,P3P ,P4 ,P4P ,Inspire Series）",Inspire 2 Part 23,CP.BX.000209,6958265142147,190021288058,$19,
,,,"Inspire 2 C1 Remote Controller MICRO B TO STANDARD A CABLE（260mm）（P3A,P3P ,P4 ,P4P ,Inspire Series）",Inspire 2 Part 24,CP.BX.000210,6958265142154,190021288065,$4,
,,,"Inspire 2 C1 Remote Controller TYPE C TO STANDARD A CABLE（260mm）（P3A,P3P ,P4 ,P4P ,Inspire Series）",Inspire 2 Part 25,CP.BX.000211,6958265142161,190021288072,$7,
,,,Inspire 2 180W AC Power Adaptor  Cable (NA) (Standard),Inspire 2 PART 26,CP.BX.000214,6958265142994,190021288904,$9,
,,,Inspire 2 Battery Insulation Sticker,Inspire 2 PART 35,CP.BX.000227,6958265144608,190021290518,$5,
,,,Inspire 2 Car Charger,Inspire 2 PART 37,CP.BX.000228,6958265144738,190021290648,$109,
,,Inspire 2 License Key,Cinema License Key,,,,,"$1,000",Only sold in DJI Official Website
,,,CinemaDNG and Apple ProRes License Key,,,,,"$1,300",Only sold in DJI Official Website
,,,Apple ProRes License Key,,,,,$500,Only sold in DJI Official Website
,Inspire 1,Main,Inspire 1 V2.0,,CP.BX.000103,6958265115882,190021001930,"$1,999",with single Remote Controller
,,Spare,Inspire 1 Remote Controller,,CP.BX000009,6958265115080,,$429,
,,,Inspire 1 100W power adaptor (without AC cable),Inspire Part 3,CP.BX.000011,6958265115103,,$55,
,,,Inspire 1 180W AC Power Adaptor Cable (USA&Canada),Inspire Part 4,CP.BX.000012,6958265115523,190021000223,$5,
,,,Inspire 1 180W Power Adaptor (without AC cable),Inspire Part 13,CP.BX.000021,6958265115608,190021000230,$90,
,,,Inspire 1 Airframe Top Cover,Inspire Part 31,CP.BX.000040,6958265115288,,$20,
,,,Inspire 1 Aircraft Nose Cover,Inspire Part 32,CP.BX.000041,6958265115295,,$15,
,,,Inspire 1 Left & Right Arm Supports,Inspire Part 33,CP.BX.000042,6958265115301,,$6,
,,,Inspire 1 Battery Compartment,Inspire Part 36,CP.BX.000045,6958265115332,,$20,
,,,Inspire 1 Airframe Bottom Cover,Inspire Part 37,CP.BX.000046,6958265115349,,$20,
,,,Inspire 1 Airframe Tag,Inspire Part 46,CP.BX.000055,6958265115424,,$8,
,,,Inspire 1 Bottom GPS Cover,Inspire Part 47,CP.BX.000056,6958265115431,,$10,
,,,Inspire 1 Taillight Cover,Inspire Part 48,CP.BX.000057,6958265115448,,$6,
,,,Inspire 1 Fast-mounting Gimbal Port PCBA,Inspire Part 30,CP.BX.000039,6958265115271,,/,maintenance services ONLY
,,,Inspire 1  Filter Kit,Inspire Part 35,CP.BX.000044,6958265115325,,$40,
,,,Inspire 1 Vision Positioning Module,Inspire Part 39,CP.BX.000048,6958265115363,,/,maintenance services ONLY
,,,Inspire 1 Gimbal and Camera Unit,Inspire Part 40,CP.BX.000049,6958265115370,190021000193,$459,
,,,Inspire 1 Gimbal Mount & Mounting Plate,Inspire Part 41,CP.BX.000050,6958265115387,,/,maintenance services ONLY
,,,Inspire 1 Fast-mounting Gimbal Port Cable,Inspire Part 17,CP.BX.000025,6958265115257,,$4,
,,,Inspire 1 100W AC Power Adaptor  Cable (US & Canada),Inspire Part 19,CP.BX.000027,6958265115110,190021000162,$6,
,,,Inspire 1 RemoteControllerCableKit,Inspire Part 34,CP.BX.000043,6958265115318,,$8,
,,,Inspire 1 Sticker,Inspire Part 38,CP.BX.000047,6958265115356,,$8,
,,,Inspire 1 Inspire 1 Gimbal Rubber Dampers & U-EVA Sticker for Remote,Inspire Part 42,CP.BX.000051,6958265115394,,$4,
,,,Inspire 1 Left&RightCableClamp,Inspire Part 43,CP.BX.000052,6958265115400,,$3,
,,,Inspire 1/ P3 Remote Controller Strap,Inspire Part 44,CP.BX.000053,6958265115219,,$10,
,,,Inspire 1 MobileDeviceHolder,Inspire Part 45,CP.BX.000054,6958265115417,,$30,
,,,Inspire 1 Battery Heater,Inspire Part 15,CP.BX.000023,6958265115233,,$20,
,,,Inspire 1 Gimbal Connection Gasket,Inspire Part 49,CP.BX.000058,6958265115455,,$2,
,,,Inspire 1 TB47 Battery Insulation Sticker,Inspire Part 50,CP.BX.000059,6958265115462,,$2,
,,,Inspire 1 TB48 Battery Insulation Sticker,Inspire Part 51,CP.BX.000060,6958265115479,,$2,
,,,Inspire 1 1345 quick release propellers,Inspire Part 52,CP.BX.000035,6958265115264,190021000186,$10,
,,,"Inspire 1 1345 propeller Installation Kits（2 pieces, CW+CCW）",Inspire Part 53,CP.BX.000062,6958265115493,190021000209,$4,
,,,Inspire  1 Battery Charging Hub,Inspire Part 55,CP.BX.000065,6958265115615,190021000858,$90,
,,,Inspire 1-P3 Remote Controller Monitor Hood (For Smartphones),Inspire Part 56,CP.BX.000077,6958265115622,,$12,
,,,Inspire 1-P3 Remote Controller Monitor Hood (For Tablets),Inspire Part 57,CP.BX.000078,6958265115639,,$16,
,,,Inspire 1 ND16 Filter Kit,Inspire Part 60,CP.BX.000079,6958265115653,190021000711,$29,
,,,Inspire 1 ND8 Filter Kit,Inspire Part 61,CP.BX.000080,6958265115660,190021000728,$29,
,,,Inspire 1 Plastic Suitcase(Without Inner Container),Inspire Part 62,CP.BX.000081,6958265115707,190021000698,/,Part 62 is a package of 5 separate Plastic Suitcases. The RRP Price is for a single item.
,,,Inspire 1 Plastic Suitcase(With Inner Container),Inspire Part 63,CP.BX.000082,6958265115714,190021000704,$199,
,,,Inspire 1 Inner Container for Inspire 1 Plastic Suitcase,Inspire Part 68,CP.BX.000100,6958265115844,190021001633,$129,
,,,Inspire 1 1345T Quick-Release Propeller,Inspire Part 69,CP.BX.000101,6958265115851,190021001794,$12,
,,,Inspire 1 1345T Propeller Installation Kit,Inspire Part 70,CP.BX.000102,6958265115868,190021001800,$5,
,,,Inspire 1 Car Charger,Inspire Part 71,CP.BX.000111,6958265115875,190021001848,$109,
,,,Inspire 1 Landing Gear Riser Kit,Inspire Part 72,CP.BX.000113,6958265115967,190021003576,$5,
,,,"Inspire1 Aircraft(Excludes Remote Controller, Camera, Battery and Battery Charger)（NA&EU, V2.0/PRO）",Inspire Part 77,CP.BX.000125,6958265121074,190021004375,"$1,399",
,,,Inspire 1 1360s Quick Release Propellers (for high-altitude operations),Inspire Part 80,CP.BX.000128,6958265121111,190021004535,$15,
,,,Inspire 1 TB47 Battery (4500mAh),Inspire Part 86 /87,CP.BX.000146,6958265121715,190021009127,$159,MOQ: 2
,,,Inspire 1 TB48 Battery (5700mAh),Inspire Part 90,CP.BX.000150,6958265121753,190021009165,$199,MOQ: 4
,,,"Inspire 1 Aircraft(Excludes Remote Controller and Battery Charger) (NA&EU, V2.0)",Inspire Part 93,CP.BX.000158,6958265121869,,"$1,699",
,,,Inspire 1 X5R Gimbal Lock,Inspire Part 97,CP.BX.000163,6958265121883,,/,
,,,Inspire 1 1360T Quick Release Propellers(for high-altitude operations),Inspire Part 98,CP.BX.000165,6958265121906,,$19,
,Inspire 1 PRO,Main,Inspire 1 PRO,,CP.BX.000066,6958265115721,190021001190,"$3,399",with single Remote controller & Lens
,,,Inspire 1 Pro Black Edition,,CP.BX.000115,6958265121098,190021004511,"$4,199",
,,Spare,Inspire 1 Remote Controller (Black),Inspire Part 83,CP.BX.000137,6958265116360,190021005648,$499,
,,,Inspire 1 TB47 Black Battery (4500mAh),Inspire Part 88,CP.BX.000148,6958265121739,190021009141,$169,MOQ: 2
,,,Inspire 1 TB48 Black Battery (5700mAh),Inspire Part 91,CP.BX.000151,6958265121760,190021009172,$209,MOQ: 24
,Inspire 1 RAW,Main,Inspire 1 RAW,,CP.BX.000088,6958265121388,190021004702,"$5,399","with two Remote Controllers, SSD & Lens"
,,Combo,Inspire 1 raw + 2 Extra SSDs (512G),,CP.BX.000160,6958265121821,190021015173,"$6,499",MOQ: 20
,"ZENMUSE X5
",Spare,ZENMUSE X5 Vibration Absorbing Board,Zenmuse X5 Part 2,CP.BX.000087,6958265115813,190021001572,$99,
,,,"ZENMUSE X5 Balancing Ring for Panasonic 15mm,F/1.7 ASPH Prime Lens",Zenmuse X5 Part 3,CP.BX.000118,6958265121043,190021004023,$9,
,,,ZENMUSE X5 Balancing Ring for 01ympus 17mm f1.8 Lens,Zenmuse X5 Part 4,CP.BX.000123,6958265121050,190021004351,$9,
,,,ZENMUSE X5 Balancing Ring for 01ympus 14-42 f3.5-6.5 EZ Lens,Zenmuse X5 Part 5,CP.BX.000124,6958265121067,190021004368,$9,
,,Main,ZENMUSE X5,,CP.BX.000076,6958265115677,190021000681,"$1,799",with Lens
,,Spare,ZENMUSE X5 Gimbal and Camera (Lens Excluded),Zenmuse X5 Part 1,CP.BX.000098,,,"$1,299",Lens Excluded
,,,"DJI MFT 15mm,F/1.7 Prime Lens",,CP.BX.000099,6958265115837,190021001596,$599,
,ZENMUSE X5S & X5R,Main,ZENMUSE X5R,,CP.BX.000097,6958265121500,190021004986,"$3,599",With Lens & SSD
,,,ZENMUSE X5S,,CP.ZM.000496,6958265139161,190021284807,"$1,899",
,,,ZENMUSE X4S,,CP.ZM.000497,6958265139178,190021284814,$599,
,,Spare,ZENMUSE X5S Part 1 Gimbal and Camera (Lens Excluded),Zenmuse X5S Part 1,CP.ZM.000517,6958265141201,190021287099,"$1,399",
,,,ZENMUSE X5S Balancing Ring for Panasonic 15mm，F/1.7 ASPH Prime Lens,Zenmuse X5S Part 2,CP.ZM.000528,6958265141881,190021287792,$9,
,,,ZENMUSE X5S Balancing Ring for Panasonic 14-42mm，F/3.5-5.6 ASPH Zoom Lens,Zenmuse X5S Part 3,CP.ZM.000529,6958265141928,190021287839,$9,
,,,ZENMUSE X5S Balancing Ring for Olympus 45mm，F/1.8 ASPH Prime Lens,Zenmuse X5S Part 4,CP.ZM.000530,6958265141935,190021287846,$9,
,,,ZENMUSE X5S Balancing Ring for Olympus 9-18mm，F/4.0-5.6 ASPH Zoom Lens,Zenmuse X5S Part 5,CP.ZM.000531,6958265141942,190021287853,$15,
,,,"ZENMUSE X5S Balancing Ring for Olympus 12mm, F/2.0&17mm, F/1.8&25mm, F/1.8 ASPH Prime Lens",Zenmuse X5S Part 6,CP.ZM.000532,6958265141959,190021287860,$9,
,,,ZENMUSE Gimbal and Camera (Lens Excluded),Zenmuse X5R Part 1,CP.BX.000133,,,"$3,199","without lens, with SSD"
,,,Zenmuse X5R SSD (512GB),Zenmuse X5R Part 2,CP.BX.000120,6958265116407,190021005860,$749,
,,,Zenmuse X5R SSD Reader,Zenmuse X5R Part 3,CP.BX.000119,6958265116391,190021005853,$99,
,Z30,Main,Z30,,CP.ZM.000506,6958265139222,190021284883,/,"MOQ:5, The unit price is $6290 based on 5-19pcs; the unit price is $5920 based on 20-29pcs; the unit price is $5550 based on 30pcs above."
,,Combo,Z30 – M100 Bundle,,/,/,/,/,"MOQ:5, The unit price is $8140 based on 5-19pcs; the unit price is $7770 based on 20-29pcs; the unit price is $7400 based on 30pcs above."
,,,Z30 – M600 Bundle,,/,/,/,/,"MOQ:5, The unit price is $8890 based on 5-19pcs; the unit price is $8520 based on 20-29pcs; the unit price is $8150 based on 30pcs above."
,,Spare,Z30 – Gimbal Adaptor for M100,,CP.SB.000316,/,/,/,MOQ:5
,,,Z30 – Gimbal Adaptor for M600,,CP.SB.000315,/,/,/,MOQ:5
Ronin,Ronin MX,Main,Ronin-MX,,CP.ZM.000377,6958265127236,190021010246,"$1,599",Get a RONIN-M Wireless Thumb Controller & Grip for free
,,Spare,Ronin-MX Remote Start/Stop,Ronin MX Part 1,CP.ZM.000384,6958265127298,190021010307,$149,
,,,Ronin-MX RSS Control Cable for Panasonic,Ronin MX Part 2,CP.ZM.000435,6958265127458,,$7,
,,,Ronin-MX RSS Control Cable for Sony,Ronin MX Part 3,CP.ZM.000446,6958265127564,,$7,
,,,Ronin-MX RSS Control Cable for BMCC,Ronin MX Part 4,CP.ZM.000436,6958265127465,,$7,
,,,Ronin-MX RSS Control Cable for RED,Ronin MX Part 5,CP.ZM.000437,6958265127472,,$69,
,,,Ronin-MX RSS Control Cable for Canon,Ronin MX Part 6,CP.ZM.000438,6958265127489,,$7,
,,,Ronin-MX CAN Cable for Ronin-MX/SRW-60G,Ronin MX Part 7,CP.ZM.000439,6958265127496,190021013681,$8,
,,,Ronin-MX Power Cable for Transmitter of SRW-60G,Ronin MX Part 8,CP.ZM.000440,6958265127502,190021013698,$7,
,,,Ronin-MX HDMI to Micro HDMI Cable for SRW-60G,Ronin MX Part 9,CP.ZM.000442,6958265127526,190021013711,$15,
,,,Ronin-MX HDMI to HDMI Cable for SRW-60G,Ronin MX Part 10,CP.ZM.000443,6958265127533,190021013728,$15,
,,,Ronin-MX HDMI to Mini HDMI Cable for SRW-60G,Ronin MX Part 11,CP.ZM.000444,6958265127540,190021013735,$15,
,,,Ronin-MX RSS Power Cable ,Ronin MX Part 12,CP.ZM.000441,6958265127519,190021013704,$7,
,,,Ronin-MX Camera Mounting Plate ,Ronin MX Part 13,CP.ZM.000445,6958265127557,190021013742,$40,
,,,Ronin-MX Camera Upper Mounting Plate,Ronin MX Part 14,CP.ZM.000457,6958265127731,190021015234,/,maintenance services ONLY
,,,Ronin-MX Accessory Kit for RED ,Ronin MX Part 15,CP.ZM.000434,6958265127441,190021013636,$45,
,,,Ronin-MX Remote Start/Stop-DJI Focus Power and Data Cable,Ronin MX Part 19,CP.ZM.000458,6958265127748,190021015258,$42,
,,,Ronin-MX Counterweight Set（Ronin-M/Ronin-MX）,Ronin MX Part 20,CP.ZM.000481,6958265139574,190021285231,$199,
,,,Ronin-MX Counter Weight(270g),Ronin MX Part 21,CP.ZM.000482,6958265139567,190021285224,$45,
,,,Ronin-MX Upper Mounting Plate for Cine Cameras,Ronin MX Part 22,CP.ZM.000483,6958265139550,190021285217,$45,
,,,Ronin-MX Counter Weight(180g),Ronin MX Part 23,CP.ZM.000485,6958265139543,190021285200,$39,
,,,Ronin-MX Control Cable for ARRI Mini (RSS-A),Ronin-MX Part 24,CP.ZM.000486,6958265139536,190021285194,$89,
,,,Ronin-MX Counter Weight Mounting Plate,Ronin MX Part 26,CP.ZM.000508,6958265141546,190021287440,$69,
,,,Ronin-MX Extended Camera Mounting Plate,Ronin-MX Part 27,CP.ZM.000538,6958265144653,190021290563,$79,
,,,FOCUS Remote Controller Focus Mount,FOCUS Part 27,CP.ZM.000503,6958265139499,190021285156,$189,
,,,Ronin-MX Power Cable for ARRI Mini,Ronin MX Part 25,CP.ZM.000487,6958265139529,190021285187,$79,
,,,SRW-60G,,CP.ZM.000385,6958265127304,190021010314,$249,
,,,Ronin Grip,RONIN PART 52,CP.ZM.000375,6958265127229,190021010239,$249,
,,,Ronin-M Grip,Ronin M Part 41,CP.ZM.000374,6958265127212,190021010222,$229,
,Ronin-M,Main,Ronin-M,,CP.ZM.000144,6958265113611,190021000124,$999,
,,Spare,Ronin-M Universal Camera Mounting Plate,Ronin M Part 1,CP.ZM.000177,6958265113673,,$85,
,,,RONIN-M Lock Knob,Ronin M Part 2,CP.ZM.000200,6958265113932,,$7,maintenance services ONLY
,,,Ronin-M Tilt Bar Extension Rods (30mm),Ronin M Part 5,CP.ZM.000201,6958265113949,,$18,For Ronin-M only
,,,Ronin-M Monitor/Accessory Mount,Ronin M Part 19,CP.ZM.000195,6958265113857,,$65,For Ronin-M only
,,,RONIN-M Lens Support Mount,Ronin M Part 3,CP.ZM.000179,6958265113697,,$40,
,,,RONIN-M Center Handle Set,Ronin M Part 6,CP.ZM.000182,6958265113727,,$250,
,,,RONIN-M Locking Knob,Ronin M Part 7,CP.ZM.000183,6958265113734,,$70,
,,,RONIN-M Pitch Adjustment Buckle,Ronin M Part 8,CP.ZM.000184,6958265113741,,$35,
,,,RONIN-M Camera Locking Kit,Ronin M Part 9,CP.ZM.000185,6958265113758,,$110,
,,,RONIN-M Carbon Top Handle Bars,Ronin M Part 10,CP.ZM.000186,6958265113765,,$100,
,,,RONIN-M Foldable Tuning Stand,Ronin M Part 11,CP.ZM.000187,6958265113772,,$450,
,,,RONIN-M Pan Adjustment Buckle,Ronin M Part 12,CP.ZM.000188,6958265113789,,$35,
,,,RONIN-M Power Distribution Box,Ronin M Part 13,CP.ZM.000189,6958265113796,,$150,
,,,RONIN-M Drop Proof Kit,Ronin M Part 14,CP.ZM.000190,6958265113802,,$20,
,,,"RONIN-M Beveled Head Camera Screw 1/4"" and 3/8""",Ronin M Part 15,CP.ZM.000191,6958265113819,,$10,
,,,"RONIN-M Flat Facing Head Camera Screw 1/4"" and 3/8""",Ronin M Part 16,CP.ZM.000196,6958265113864,,$10,
,,,RONIN-M Remote Controller,Ronin M Part 17,CP.ZM.000193,6958265113833,,$100,
,,,RONIN-M Left and Right Handle Bars,Ronin M Part 18,CP.ZM.000198,6958265113888,,$250,
,,,RONIN-M Charger（NA）,Ronin M Part  20,CP.ZM.000181,6958265113710,,$70,
,,,RONIN-M Mobile Device Holder,Ronin M Part  27,CP.ZM.000218,6958265104336,190021001183,$59,
,,,RONIN Thumb Controller Receiver,Ronin Part  39,CP.ZM.000217.02,6958265122729,190021006720,$49,
,,,RONIN-M 25W BATTERY CHARGER (NA),Ronin M Part 28,CP.ZM.000214,6958265113970,€0,$35,
,,,RONIN-M Suitcase,Ronin M Part 34,CP.ZM.000236,6958265104565,190021001732,$199,
,,,RONIN-M DJI LW Tuning Stand,Ronin M Part 37,CP.ZM.000306,6958265122231,190021005310,$450,
,,,RONIN-M 4S Battery（1580mAh),Ronin M Part 39,CP.ZM.000368,6958265122934,190021008601,$89,MOQ: 20
,,,Thumb Controller (For Ronin-M）,,CP.ZM.000174,6958265113604,190021000117,$169,For Ronin-M only
,Ronin,Main,Ronin (including case),,CP.ZM.000078,6958265111303,190021003163,"$1,999",
,,Spare,"RONIN Dovetail Mounting Plate (RED, Canon)",Ronin Part 1,CP.ZM.000095,6958265113147,,$85,
,,,RONIN - RONIN MX  Follow Focus Mount (15mm),RONIN / R-MX PART 2,CP.ZM.000096,6958265113154,,$70,Compatible with both Ronin and Ronin-M
,,,RONIN Lens Support (70mm),Ronin Part  3,CP.ZM.000097,6958265113246,,$40,
,,,RONIN Lens Support Thumbscrew,Ronin Part  4,CP.ZM.000098,6958265110832,,$10,
,,,RONIN Battery 3400mAH,Ronin Part  5,CP.ZM.000099,6958265111228,,$149,Compatible with both Ronin and Ronin-M
,,,RONIN Battery Charger,Ronin Part  6,CP.ZM.000100,6958265113161,,$70,
,,,RONIN Right Arm (Standard),Ronin Part  7,CP.ZM.000101,6958265113192,,$150,
,,,RONIN Left Arm (Standard),Ronin Part  8,CP.ZM.000102,6958265113208,,$150,
,,,RONIN Top Handle Assembly,Ronin Part  9,CP.ZM.000103,6958265113222,,$250,
,,,RONIN Clamp Knob (6pcs),Ronin Part  10,CP.ZM.000104,6958265113031,,$70,
,,,RONIN Vertical Bar Clamp (2pcs),Ronin Part  11,CP.ZM.000105,6958265113048,,$35,
,,,RONIN Base Clamp Assembly,Ronin Part  12,CP.ZM.000106,6958265113123,,$110,
,,,RONIN Top Handle Bar (Carbon Fiber),Ronin Part  13,CP.ZM.000107,6958265113130,,$100,
,,,RONIN Top Handle Bar Ends (2pcs),Ronin Part  14,CP.ZM.000108,6958265113055,,$20,
,,,RONIN Tuning Stand,Ronin Part  15,CP.ZM.000109,6958265113215,,$450,
,,,RONIN Pan Adjustment Clamp (2pcs),Ronin Part  16,CP.ZM.000110,6958265113062,,$35,
,,,RONIN Power Distribution Box,Ronin Part  17,CP.ZM.000111,6958265113239,,$150,
,,,RONIN Vertical Bar End Stops (2pcs),Ronin Part  18,CP.ZM.000112,6958265113079,,$20,
,,,"RONIN Camera Screw 1/4"" (2pcs)",Ronin Part  19,CP.ZM.000113,6958265113086,,$10,
,,,"RONIN Camera Screw 3/8"" (2pcs)",Ronin Part  20,CP.ZM.000114,6958265113093,,$10,
,,,RONIN Hook and Loop Straps (3pcs),Ronin Part  21,CP.ZM.000115,6958265113109,,$7,Compatible with both Ronin and Ronin-M
,,,RONIN Transmitter,Ronin Part  22,CP.ZM.000116,6958265113178,,$100,
,,,RONIN Case (not including inner foam layers),Ronin Part  23,CP.ZM.000117,6958265110849,,$550,
,,,RONIN Case Inner Foam (upper),Ronin Part  24,CP.ZM.000118,6958265110856,,$125,
,,,RONIN Case Inner Foam (Lower),Ronin Part  25,CP.ZM.000135,6958265113253,,$125,
,,,RONIN Tuning Stand Screw,Ronin Part  26,CP.ZM.000120,6958265113116,,$30,Compatible with both Ronin and Ronin-M
,,,RONIN Monitor Mounting Bracket A,Ronin Part  27,CP.ZM.000133,6958265113185,,$65,For Ronin only
,,,RONIN Dovetail Mounting Plate B (with universal groove and camera screws),Ronin Part  29,CP.ZM.000136,6958265113260,,$100,
,,,RONIN B Arm Kit (Right & Left Arms extended 50mm),Ronin Part  30,CP.ZM.000137,6958265113277,,$345,
,,,RONIN C Arm Kit (Right & Left Arms extended 80mm),Ronin Part  31,CP.ZM.000138,6958265113284,,$375,
,,,RONIN Lens Support (extended 103mm),Ronin Part  32,CP.ZM.000139,6958265113291,,$45,Compatible with both Ronin and Ronin-M
,,,RONIN Cable Pack,Ronin Part  33,CP.ZM.000140,6958265113307,,$40,
,,,RONIN Handle Grips,Ronin Part 35,CP.ZM.000142,6958265113321,,$250,
,,,RONIN Pan Balance Adjustment Bar,Ronin Part 36,CP.ZM.000143,6958265113314,,$60,
,,,RONIN Weight Balancer,Ronin Part 37,CP.ZM.000146,6958265113338,,$150,
,,,RONIN Multi-function Mount,Ronin Part 38,CP.ZM.000147,6958265113345,,$110,
,,,RONIN Arm Extender,Ronin Part 40,CP.ZM.000282,6958265104985,190021003828,$249,
,,,RONIN - RONIN MX Battery Power Distributor,Ronin Part 41,CP.ZM.000301,6958265121210,190021004399,$149,
,,,RONIN - RONIN MX Red Power Cable,Ronin Part 42,CP.ZM.000302,6958265121227,190021004405,$99,
,,,RONIN Extended Arm for Roll Axis（50mm）,Ronin Part 43,CP.ZM.000319,6958265122606,190021005815,$139,
,,,RONIN Extended Arm for Yaw Axis（50mm）,Ronin Part 45,CP.ZM.000343,6958265122569,190021005778,$109,
,,,RONIN 57W Battery Charger,Ronin Part 46,CP.ZM.000345,6958265122514,190021005723,$55,
,,,RONIN Universal Remote Controller Lanyard（P4/P3/Inspire1）,Ronin Part 49,,,,$19,
,,,RONIN 4S Battery（4350mAh),Ronin Part 50,CP.ZM.000367,6958265122927,190021008595,$159,MOQ: 20
,,,Ronin Auxiliary Power Adapter,,CP.ZM.000537,6958265144646,190021290556,$199,
,,,Thumb Controller (For Ronin）,,CP.ZM.000159.02,6958265122538,190021005747,$189,Compatible with both Ronin and Ronin-M
,DJI Focus,Spare,DJI Focus,,CP.ZM.000234,6958265104435,190021001527,"$1,999",
,,,DJI Focus (ADD ON),,,,,"$1,499",apply to Ronin or Ronin-M
,,,DJI Focus Remote controller,,CP.ZM.000238,6958265104558,190021001671,$999,
,,,DJI Focus Remote controller (ADD ON),,,,,$899,apply to Inspire 1 Pro or RAW
,,,FOCUS Extended Motor Gear（MOD 0.8）,Focus Part 1,CP.ZM.000283,6958265104992,190021003835,$49,
,,,FOCUS Remote Controller CAN Bus Cable,Focus Part 2,CP.ZM.000286,6958265122002,190021003842,$45,
,,,FOCUS 2.4G Antenna,Focus Part 3,CP.ZM.000287,6958265122019,190021003873,$9,
,,,FOCUS Motor Power Cable(400mm),Focus Part 4,CP.ZM.000288,6958265122026,190021003880,$55,
,,,FOCUS Motor Power Cable(750mm),Focus Part 5,CP.ZM.000289,6958265122033,190021003897,$65,
,,,FOCUS Data Cable (2M),Focus Part 6,CP.ZM.000290,6958265122040,190021003903,/,maintenance services ONLY
,,,FOCUS Marking Ring,Focus Part 7,CP.ZM.000291,6958265122057,190021003910,$10,
,,,FOCUS Lens Gear Ring (60MM),Focus Part 8,CP.ZM.000292,6958265122064,190021003927,$29,
,,,FOCUS Lens Gear Ring (70MM),Focus Part 9,CP.ZM.000293,6958265122071,190021003934,$29,
,,,FOCUS Lens Gear Ring (80MM),Focus Part 10,CP.ZM.000294,6958265122088,190021003941,$29,
,,,FOCUS Lens Gear Ring (90MM),Focus Part 11,CP.ZM.000295,6958265122095,190021003958,$29,
,,,FOCUS Neck Strap,Focus Part 12,CP.ZM.000296,6958265122101,190021003965,$35,
,,,FOCUS Motor 2007,Focus Part 13,CP.ZM.000297,6958265122194,190021005273,$549,
,,,FOCUS Motor Quick-release Mount,Focus Part 14,CP.ZM.000298,6958265121128,190021004085,$59,
,,,FOCUS Motor Quick-release Mount (extended by 40mm),Focus Part 15,CP.ZM.000299,6958265121135,190021004092,$79,
,,,FOCUS Motor Gear（MOD 0.8）,Focus Part 16,CP.ZM.000300,6958265121142,190021004108,$39,
,,,"FOCUS Motor Power Cable (Right Angle, 400mm)",Focus Part 17,CP.ZM.000303,6958265121234,190021004412,$70,
,,,"FOCUS Data Cable (Right Angle to Straight, 2M)  ",Focus Part 18,CP.ZM.000304,6958265121241,190021004429,$80,
,,,FOCUS Accessory Support Frame,Focus Part 19,CP.ZM.000305,6958265122200,190021005280,$139,
,,,"FOCUS Motor Power Cabile(Right Angle, 750mm)",Focus Part 20,CP.ZM.000320,6958265122217,190021005297,$80,
,,,FOCUS Suitcase,Focus Part 21,CP.ZM.000322,6958265122224,190021005303,$149,
,,,Focus Rechargeable LiPo Battery(1700mAh),Focus Part 22,CP.ZM.000342,6958265122552,190021005761,$25,
,,,Focus Focus Motor Expansion Module Power and Data Cable,Focus Part 23,CP.ZM.000465,6958265127908,190021278875,$59,
,,,Focus Focus Motor Expansion Module(5.8G),Focus Part 24,CP.ZM.000476,6958265127892,190021278868,$159,
,,,FOCUS DJI Remote Controller Accessories Mount,Focus Part 25,CP.ZM.000504,6958265139505,190021285163,$99,
,,,FOCUS DJI Remote Controller Mounting Screw Set,Focus Part 26,CP.ZM.000505,6958265139512,190021285170,$30,
,,,FOCUS DJI FOCUS-Inspire 2 Remote Controller CAN Bus Cable (1.2 M),Focus Part 28,CP.ZM.000518,6958265141331,190021287228,$29,
,,,FOCUS DJI Focus Handwheel-Inspire 2 Remote Controller CAN Bus Cable (30CM),Focus Part 29,CP.ZM.000519,6958265141348,190021287235,$25,
,,,FOCUS Part 32 Thumbwheel,FOCUS Part 32,CP.ZM.000536,6958265144639,190021290549,$299,
,,,FOCUS Part 33 Thumbwheel-Remote Start/Stop Cable,FOCUS Part 33,CP.ZM.000547,6958265145940,190021292024,$39,
,,,FOCUS Part 35 Thumbwheel- DJI Focus Motor Cable,FOCUS Part 35,CP.ZM.000546,6958265145933,190021292017,$79,
,,,FOCUS DJI Focus-Inspire 2 Remote Controller CAN Bus Cable (30CM),Focus Part 30,CP.ZM.000520,6958265141355,190021287242,$29,
,,,FOCUS DJI Focus Handwheel-Inspire 2 Remote Controller CAN Bus Cable(1.2M),Focus Part 31,CP.ZM.000521,6958265141362,190021287259,$25,
,,,,,,,,,
High End,Matrice 600,Main,Matrice 600,,CP.SB.000239,6958265114328,190021009202,"$4,599",Customer who buy Matrice 600 will get an extra product for free：MATRICE 600 Battery Case*1、MATRICE 600 DJI Hex Charger*1
,,,MATRICE 600 Pro,,CP.SB.000308,6958265132155,190021286139,"$4,999",
,,Combo,MATRICE 600 Intelligent Flight Battery TB47S,,CP.SB.000287,6958265114687,190021010642,$799,
,,Spare,MATRICE 600 PRO Collapsible GPS Mount,MATRICE 600 PRO PART 23,CP.SB.000333,6958265142192,190021288102,$39,
,,,MATRICE 600 PRO Foldable Frame Arm Mount Kit,MATRICE 600 PRO PART 26,CP.SB.000342,6958265142284,190021288195,$39,
,,,MATRICE 600 PRO Landing Leg Kit,MATRICE 600 PRO PART 30,CP.SB.000348,6958265142314,190021288225,$49,
,,,MATRICE 600 PRO Landing Skid Kit,MATRICE 600 PRO PART 31,CP.SB.000349,6958265142321,190021288232,$59,
,,,MATRICE 600 PRO Landing Gear Spring Kit,MATRICE 600 PRO PART 32,CP.SB.000353,6958265142338,190021288249,$49,
,,,MATRICE 600 ZENMUSE X3/X5 Gimbal Mounting Bracket,MATRICE 600 PART 1,CP.SB.000253,6958265114380,190021010345,$169,
,,,Matrice 600/Pro D-RTK Mounting Bracket,,CP.WK.000109,6958265142895,,$69,
,,,MATRICE 600 Z15 Gimbal Connector,MATRICE 600 PART 2,CP.SB.000254,6958265114397,190021010352,$45,
,,,MATRICE 600 Power Source Hub Kit,MATRICE 600 PART 3,CP.SB.000255,6958265114403,190021010369,$12,
,,,MATRICE 600 Upper Expansion Bay Kit,MATRICE 600 PART 4,CP.SB.000256,6958265114410,190021010376,$24,
,,,MATRICE 600 Aircraft Arm Angle Calibrator,MATRICE 600 PART 7,CP.SB.000259,6958265114434,190021010390,$12,
,,,MATRICE 600 Intelligent Flight Battery TB47S,MATRICE 600 PART 9,CP.SB.000245,6958265114250,"€190,021,003,477",$159,
,,,MATRICE 600 Intelligent Flight Battery TB48S,MATRICE 600 PART 10,CP.SB.000288,6958265114694,190021010659,$199,
,,,MATRICE 600 Black Remote Controller,MATRICE 600 PART 11,CP.SB.000292,6958265114731,190021013599,$549,
,,,M600/M600PRO Remote Controller Channel Expansion Kit,M600/M600PRO PART 15,CP.SB.000328,6958265141973,190021287884,$219,
,,,MATRICE 600 Center Frame Kit,MATRICE 600 PART 21,CP.SB.000261,6958265114458,190021010413,$269,
,,,MATRICE 600 Red Rotatable Clamp Kit,MATRICE 600 PART 22,CP.SB.000262,6958265114465,190021010420,/,
,,,MATRICE 600 GPS Foldable Mount,MATRICE 600 PART 23,CP.SB.000263,6958265114472,,$13,
,,,"MATRICE 600 Aircraft Arm Kit（CCW, Red）",MATRICE 600 PART 24,CP.SB.000264,6958265114489,190021010444,$199,
,,,"MATRICE 600 Aircraft Arm Kit（CW, Red）",MATRICE 600 PART 25,CP.SB.000265,6958265114496,190021010451,$199,
,,,"MATRICE 600 Aircraft Arm Kit（CCW, Black）",MATRICE 600 PART 26,CP.SB.000266,6958265114502,190021010468,$199,
,,,"MATRICE 600 Aircraft Arm Kit（CW, Black）",MATRICE 600 PART 27,CP.SB.000267,6958265114519,190021010475,$199,
,,,MATRICE 600 2170R Folding Propeller Kit(CW/CCW),MATRICE 600 PART 28,CP.SB.000268,6958265114526,190021010482,$39,
,,,MATRICE 600 Red Motor Mount,MATRICE 600 PART 30,CP.SB.000270,6958265114533,190021010499,$13,
,,,MATRICE 600 Black Motor Mount,MATRICE 600 PART 31,CP.SB.000271,6958265114540,190021010505,$13,
,,,MATRICE 600 M600 ESC,MATRICE 600 PART 32,CP.SB.000272,6958265114557,190021010512,$49,
,,,MATRICE 600 Aircraft Arm Carbon Tube,MATRICE 600 PART 34,CP.SB.000274,6958265114564,,$20,
,,,MATRICE 600 Landing Gear Mounting Base Kit (Left),MATRICE 600 PART 35,CP.SB.000275,6958265114571,190021010536,$99,
,,,MATRICE 600 Landing Gear Mounting Base Kit (Right),MATRICE 600 PART 36,CP.SB.000276,6958265114588,190021010543,$99,
,,,MATRICE 600 Aircraft Arm Oblique Carbon Tube,MATRICE 600 PART 37,CP.SB.000277,6958265114595,190021010550,$22,
,,,MATRICE 600 Antenna Kit,MATRICE 600 PART 38,CP.SB.000278,6958265114601,,$11,
,,,MATRICE 600 Landing Gear Bottom Carbon Tube Kit,MATRICE 600 PART 39,CP.SB.000279,6958265114618,,$35,
,,,MATRICE 600 Extension Connector Kit,MATRICE 600 PART 40,CP.SB.000280,6958265114625,,$55,
,,,MATRICE 60 Landing Gear Teflon Gasket,MATRICE 600 PART 41,CP.SB.000281,6958265114632,190021010598,/,
,,,MATRICE 600 Aircraft Arm Collapsible Mount Kit,MATRICE 600 PART 42,CP.SB.000282,6958265114649,190021010604,$16,
,,,MATRICE 600 Upper Plate of Center Frame,MATRICE 600 PART 43,CP.SB.000283,6958265114656,,$15,
,,,MATRICE 600 Lower Plate of Center Frame,MATRICE 600 PART 44,CP.SB.000284,6958265114663,,$3,
,,,MATRICE 600 Screw Kit,MATRICE 600 PART 45,CP.SB.000285,6958265114670,190021010635,/,
,,,MATRICE 600 M600 Power Distribution Board,MATRICE 600 PART 49,CP.SB.000289,6958265114700,190021010666,$69,
,,,MATRICE 600 A3 Mounting Frame Kit,MATRICE 600 PART 50,CP.SB.000290,6958265114717,190021010673,$27,
,,,MATRICE 600 M600 Rear Light Board Kit,MATRICE 600 PART 51,CP.SB.000291,6958265114724,190021010680,$31,
,,,MATRICE 600 Gimbal Mount Rack,MATRICE 600 PART 52,CP.SB.000296,6958265132001,190021015081,$31,
,,,MATRICE 600 Cable Kit,MATRICE 600 PART 53,CP.SB.000299,6958265132018,190021015098,$15,
,,,MATRICE 600 HDMI Cable,MATRICE 600 PART 54,CP.SB.000300,6958265132025,190021015104,$12,
,,,MATRICE 600 Airframe Arm Fastener,MATRICE 600 PART 57,CP.SB.000305,6958265132094,190021279308,$35,
,,,MATRICE 600 2195 Foldable Propeller(CW/CCW),MATRICE 600 PART 58,CP.SB.000314,6958265141744,190021287655,$59,
,,,MATRICE 600 Battery Case,,CP.SB.000304,6958265132100,190021279568,$299,
,,,DJI Hex Charger,,CP.SB.000297,6958265132056,190021015135,$299,
,Matrice 100,Main,Matrice 100,,CP.TP.000029,6958265118265,190021000261,"$3,299",
,,Spare,Matrice 100 Guidance Connector,M100 PART 1,CP.TP.000004,6958265118012,,$79,
,,,Matrice 100 Gimbal Kit,M100 PART 2,CP.TP.000005,6958265118029,,$49,
,,,Matrice 100 Battery Compartment Kit,M100 PART 3,CP.TP.000006,6958265118036,,$139,
,,,Matrice 100 Extender Kit,M100 PART 4,CP.TP.000007,6958265118043,,$49,
,,,N1 video encoder,,CP.TP.000036,6958265118326,190021000841,$165,
,,,Matrice 100 Aircraft Kit,M100 PART 11,CP.TP.000010,6958265118074,,/,maintenance services ONLY
,,,Matrice 100 Frame Arm M1,M100 PART 12,CP.TP.000011,6958265118081,,$99,
,,,Matrice 100 Frame Arm M2,M100 PART 13,CP.TP.000012,6958265118098,,$99,
,,,Matrice 100 Frame Arm M3,M100 PART 14,CP.TP.000013,6958265118104,,$99,
,,,Matrice 100 Frame Arm M4,M100 PART 15,CP.TP.000014,6958265118111,,$99,
,,,Matrice 100 Frame Arm  Mounting Buckle (Outside),M100 PART 16,CP.TP.000015,6958265118128,,/,maintenance services ONLY
,,,Matrice 100 Frame Arm Mounting  Buckle (Inside),M100 PART 17,CP.TP.000016,6958265118135,,/,maintenance services ONLY
,,,Matrice 100 Landing Gear Kit,M100 PART 18,CP.TP.000017,6958265118142,,$19,
,,,Matrice 100 Motor Kit,M100 PART 20,CP.TP.000019,6958265118166,,$89,
,,,Matrice 100 ESC Kit,M100 PART 21,CP.TP.000027,6958265118241,,$59,
,,,Matrice 100 Antenna Cover Kit,M100 PART 22,CP.TP.000020,6958265118173,,$39,
,,,Matrice 100 Antenna Kit,M100 PART 23,CP.TP.000021,6958265118180,,$39,
,,,Matrice 100-PART24-Central Board Kit,M100 PART 24,CP.TP.000022,6958265118197,,/,maintenance services ONLY
,,,Matrice 100-PART25-Central Board Adapter Plate,M100 PART 25,CP.TP.000023,6958265118203,,/,maintenance services ONLY
,,,Matrice 100-PART26-Central Board  Mounting Pillar,M100 PART 26,CP.TP.000024,6958265118210,,$39,
,,,Matrice 100-PART27-GPS,M100 PART 27,CP.TP.000025,6958265118227,,/,maintenance services ONLY
,,,Matrice 100-PART28-Screw Set,M100 PART 28,CP.TP.000026,6958265118234,,$29,
,,,Matrice 100-PART29-Propeller Guard,M100 PART 29,CP.TP.000046,6958265118357,190021003460,$39,
,,,Matrice 100 Part 30 UART Cable,M100 PART 30,CP.TP.000047,6958265118364,190021004177,$4,
,,,MATRICE 100-PART31-ZENMUSE X5 MOUNTING KIT,M100 PART 31,CP.TP.000057,6958265118371,190021005556,$199,
,,,MATRICE 100-PART32-TB47D Battery(8PCS) – New Package(Dangerous Cargo),M100 PART 32,CP.TP.000129,6958265118418,190021008533,$159,MOQ: 8
,,,MATRICE 100-PART33-TB47D Battery(2PCS) –New Package(General Cargo),M100 PART 33,CP.TP.000130,6958265118425,190021008540,$159,MOQ: 2
,,,MATRICE 100-PART34-TB48D Battery(24PCS) – New Package(Dangerous Cargo),M100 PART 34,CP.TP.000133,6958265118432,190021008557,$199,MOQ: 4
,,,M100 smarter farming package,,CP.TP.000147,6958265114878,190021014558,"$8,300",
,S1000+,Main,S1000+,,CP.SB.000129,6958265110139,,"$1,499",Parts named in black font means this part is compatible on S1000+ and S1000 Premium; Parts named in red font means this part is only compatible on S1000+.
,,Spare,S1000 Premium Power Cord Plug,S1000 Part 34,CP.SB.000164,6958265110863,,/,
,,,S1000 Premium Battery Tray,S1000 Part 35,CP.SB.000165,6958265110870,,$21,
,,,S1000 Premium Lock Knob (8 units),S1000 Part 36,CP.SB.000166,6958265110887,,$9,
,,,S1000 Premium Frame Arm[CCW-BLACK],S1000 Part 37,CP.SB.000167,6958265110894,,$22,
,,,S1000 Premium Frame Arm[CCW-RED],S1000 Part 38,CP.SB.000168,6958265110900,,$22,
,,,S1000 Premium Frame Arm[CW-BLACK],S1000 Part 39,CP.SB.000169,6958265110917,,$22,
,,,S1000 Premium Frame Arm[CW-RED],S1000 Part 40,CP.SB.000170,6958265110924,,$22,
,,,S1000 Premium Motor Damping Unit,S1000 Part 41,CP.SB.000171,6958265110931,,$16,
,,,S1000 Premium Center Frame Support Pillar,S1000 Part 42,CP.SB.000172,6958265110948,,$20,
,,,S1000 Premium Motor Mount Carbon Board,S1000 Part 43,CP.SB.000173,6958265110955,,$8,
,,,S1000 Premium Frame Arm Mounting Steel Shaft,S1000 Part 44,CP.SB.000174,6958265110962,,$5,
,,,S1000 Premium Arm Mounting Bracket,S1000 Part 45,CP.SB.000175,6958265110979,,$8,
,,,S1000 Premium Center Frame,S1000 Part 46,CP.SB.000176,6958265110986,,$269,
,,,S1000 Premium Center Frame Top Board,S1000 Part 47,CP.SB.000178,6958265114007,,$89,
,,,S1000 Premium Center Frame Bottom Board,S1000 Part 48,CP.SB.000177,6958265110993,,$69,
,,,S1000 Premium Gimbal Damping Bracket,S1000 Part 49,CP.SB.000179,6958265114014,,$5,
,,,S1000 Premium Retractable Module (Right),S1000 Part 50,CP.SB.000180,6958265114021,,$159,
,,,S1000 Premium Retractable Module (Left),S1000 Part 51,CP.SB.000181,6958265114038,,$159,
,,,S1000 Premium Gimbal Damping Connecting Brackets,S1000 Part 52,CP.SB.000182,6958265114045,,$39,
,,,S1000 Premium Landing Skid,S1000 Part 53,CP.SB.000183,6958265114052,,$21,
,,,S1000 Premium 4114 Motor with black Prop cover,S1000 Part 54,CP.SB.000184,6958265114069,,$42,
,,,S1000 Premium 4114 Motor with red Prop cover,S1000 Part 55,CP.SB.000185,6958265114076,,$42,
,,,S1000 Premium ESC with Red LED,S1000 Part 56,CP.SB.000186,6958265114083,,$23,
,,,S1000 Premium ESC with Green LED,S1000 Part 57,CP.SB.000187,6958265114090,,$23,
,,,S1000 Premium Propeller Pack (8),S1000 Part 58,CP.SB.000188,6958265114106,,$39,
,,,S1000 Premium Landing Skid Leg,S1000 Part 59,CP.SB.000189,6958265114113,,$33,
,,,S1000 Premium GPS Holder,S1000 Part 60,CP.SB.000190,6958265114120,,$8,
,,,S1000 Premium Screw Pack,S1000 Part 61,CP.SB.000191,6958265114137,,$15,
,,,S1000 Premium Complete Arm [CW-RED],S1000 Part 62,CP.SB.000192,6958265114144,,$159,
,,,S1000 Premium Complete Arm [CW-Green],S1000 Part 63,CP.SB.000193,6958265114151,,$159,
,,,S1000 Premium Complete Arm [CCW-RED],S1000 Part 64,CP.SB.000194,6958265114168,,$159,
,,,S1000 Premium Complete Arm [CCW-Green],S1000 Part 65,CP.SB.000195,6958265114175,,$159,
,,,S1000 Premium Gimbal mounting accessories,S1000 Part 66,CP.SB.000196,6958265114182,,$119,
,S900,Main,S900,,CP.SB.000163,6958265110801,,"$1,199",
,,Spare,S900 Power Cord Plug,S900 Part 1,CP.SB.000197,6958265110474,,$5,
,,,S900 Battery Tray,S900 Part 2,CP.SB.000198,6958265110481,,$21,
,,,S900 Lock Knob,S900 Part 3,CP.SB.000199,6958265110498,,$9,
,,,S900 Frame Arm[CCW-BLACK],S900 Part 4,CP.SB.000200,6958265110504,,$22,
,,,S900 Frame Arm[CCW-RED],S900 Part 5,CP.SB.000201,6958265110511,,$22,
,,,S900 Frame Arm[CW-BLACK],S900 Part 6,CP.SB.000202,6958265110528,,$22,
,,,S900 Frame Arm[CW-RED],S900 Part 7,CP.SB.000203,6958265110535,,$22,
,,,S900 Motor Damping Unit,S900 Part 8,CP.SB.000204,6958265110542,,$16,
,,,S900 Center Frame Support Pillar,S900 Part 9,CP.SB.000205,6958265110559,,$12,
,,,S900 Motor Mount Carbon Board,S900 Part 10,CP.SB.000206,6958265110566,,$8,
,,,S900 Frame Arm Mounting Steel Shaft,S900 Part 11,CP.SB.000207,6958265110573,,$5,
,,,S900 Arm Mounting Bracket,S900 Part 12,CP.SB.000208,6958265110580,,$8,
,,,S900 Center Frame,S900 Part 13,CP.SB.000209,6958265110597,,$189,
,,,S900 Center Frame Bottom Board,S900 Part 14,CP.SB.000210,6958265110603,,$89,
,,,S900 Center Frame Top Board,S900 Part 15,CP.SB.000211,6958265110610,,$69,
,,,S900 Gimbal Damping Bracket,S900 Part 16,CP.SB.000212,6958265110627,,$5,
,,,S900 Retractable Module (Right),S900 Part 17,CP.SB.000213,6958265110634,,$159,
,,,S900 Retractable Module (Left),S900 Part 18,CP.SB.000214,6958265110641,,$159,
,,,S900 Gimbal Damping Connecting Brackets,S900 Part 19,CP.SB.000215,6958265110658,,$39,
,,,S900 Landing Skid,S900 Part 20,CP.SB.000216,6958265110665,,$21,
,,,S900 4114 Motor with black Prop cover,S900 Part 21,CP.SB.000217,6958265110672,,$42,
,,,S900 4114 Motor with red Prop cover,S900 Part 22,CP.SB.000218,6958265110689,,$42,
,,,S900 ESC with Red LED,S900 Part 23,CP.SB.000219,6958265110696,,$23,
,,,S900 ESC with Green LED,S900 Part 24,CP.SB.000220,6958265110702,,$23,
,,,S900 Propeller Pack (3+3),S900 Part 25,CP.SB.000221,6958265110719,,$29,
,,,S900 Landing Skid Leg,S900 Part 26,CP.SB.000222,6958265110726,,$33,
,,,S900 GPS Holder,S900 Part 27,CP.SB.000223,6958265110733,,$8,
,,,S900 Screw Pack,S900 Part 28,CP.SB.000224,6958265110740,,$15,
,,,S900 Complete Arm [CW-RED],S900 Part 29,CP.SB.000225,6958265110757,,$159,
,,,S900 Complete Arm [CW-Green],S900 Part 30,CP.SB.000226,6958265110764,,$159,
,,,S900 Complete Arm [CCW-RED],S900 Part 31,CP.SB.000227,6958265110771,,$159,
,,,S900 Complete Arm [CCW-Green],S900 Part 32,CP.SB.000228,6958265110788,,$159,
,,,S900 Gimbal Mounting Brackets,S900 Part 33,CP.SB.000229,6958265110795,,$119,
,,,S900 Landing Gear Carbon Tube (For 5N/7N Gimbal),S900 Part 34,,,,$22,
,,,S900 (Rubber damper for 4114 motor),S900 Part 35,CP.SB.000231,6958265114212,,$8,
,S1000 Premium,Spare,S1000-Premium Power Cord Plug,S1000 Premium Part 1,CP.SB.000130,6958265110146,,$5,
,,,S1000-Premium Battery Tray,S1000 Premium Part 2,CP.SB.000131,6958265110153,,$55,
,,,S1000-Premium Frame Arm Mounting Steel Shaft,S1000 Premium Part 11,CP.SB.000140,6958265110245,,$5,
,,,S1000-Premium ESC with Red LED,S1000 Premium Part 23,CP.SB.000152,6958265110368,,$55,
,,,S1000-Premium Propeller Pack (8),S1000 Premium Part 25,CP.SB.000154,6958265110382,,$95,
,,,S1000-Premium Landing Skid Leg,S1000 Premium Part 26,CP.SB.000155,6958265110399,,$95,
,,,S1000-Premium Gimbal mounting accessories,S1000 Premium Part 33,CP.SB.000162,6958265110467,,$259,
,Gimbal Zenmuse,Combo,S1000 Premium + Z15-GH4 (HD) + A2,,CB.SB.000023,,,"$6,350",
,,,S1000 Premium + Z15-GH4 (HD) + WKM,,,,,"$6,199",
,A2,Main,N3,,CP.NZ.000035,6958265103247,190021282452,$379,
,,,N3-AG,,CP.NZ.000037,6958265103278,190021287471,$449,Standard lead time for this product is 30 working days
,,,N3 add on,,,,,$300,Available only when ordering with S1000+/S900/LB1/LB2/M600/M100/Flame Wheel
,,,A2,,CP.WK.000027,695826511009,,$539,
,,Combo,A2 + iOSD Mark II,,DJIA2IMK2,,,$579,
,,,A2 + iOSD Mark II+ 2.4 G BT Data link,,DJIA2IMDL,,,$719,
,,Spare,A2 MC,,CP.WK.000038,6958265102110,,$99,
,,,A2 GPS PRO PLUS,,CP.WK.000043,6958265102196,,/,maintenance services ONLY
,,,A2 IMU,,CP.WK.000041,6958265102080,,$249,
,,,A2 PMU,,CP.WK.000039,6958265102066,,$29,
,,,A2 LED,,CP.WK.000037,6958265102097,,$39,
,,,A2 DBUS adapter,,CP.WK.000035,,,$45,
,,,A2 GPS Bracket,,CP.WK.000021,6958265102073,,$10,
,,,CAN-BUS CABLE (5PCS),,CP.WK.000036,6958265102127,,$20,
,A3,Main,A3,,CP.WK.000046,6958265102202,190021001749,$899,
,,,A3-AG,,CP.WK.000107,6958265141119,190021287006,$959,Standard lead time for this product is 30 working days
,,Main,A3 PRO,,CP.WK.000048,6958265102226,190021001763,"$1,499",
,,Main,A3 UPGRADE KIT,,CP.WK.000047,6958265102219,190021001756,$459,
,,Main,D-RTK GNSS-B*,,CP.WK.000094,6958265102653,190021015500,"$4,599",One FREE Datalink Pro will be offered to every D-RTK GNSS unit purchased
,,Main,D-RTK GNSS-G*,,CP.WK.000077,6958265102486,190021014275,"$4,599",One FREE Datalink Pro will be offered to every D-RTK GNSS unit purchased
,,Combo,A3 + LB2,,,,,"$1,599",
,,,A3 + D-RTK GNSS-B,,,,,"$5,399",
,,,A3 + D-RTK GNSS-G,,,,,"$5,399",
,Wookong-M,Main,WKM,,CP.WK.000018,6958265102004,,$999,
,,Combo,WKM +  IOSD Mark II +2.4G BT Datalink  + 50waypoint Activation,,,,,"$1,199",
,,Spare,WKM MC,,CP.WK.000032,6958265102042,,$179,
,,,WKM GPS module,,CP.WK.000031,6958265102011,,$129,
,,,WKM PMU,,CP.WK.000022,6958265102158,,$49,
,,,WKM IMU,,CP.WK.000034,6958265102035,,$429,
,,,WKM IMU V2 trade in,,CP.WK.000026,6958265102134,,$240,
,,,WKM LED,,CP.WK.000033,6958265102028,,$39,
,,,WKM servo cable(10pcs),,CP.WK.000023,,,$3,
,,,WKM GPS bracket,,CP.WK.000001,6958265102141,,$9,
,WKH,Spare,WKH GPS combo,,,,,$749,
,,,WKH-Lite(without GPS),,CP.WK.000014,6958265101014,,$569,
,,,WKH GPS module,,CP.WK.000030,6958265101021,,$229,
,,,WKH IMU,,CP.WK.000029,6958265101038,,$499,
,,,WKH GPS Bracket,,,,,$9,
,Ace One,Main,Ace one,,CP.AC.000010,6958265100000,,"$3,200",
,,"200 Waypoint",Ace Waypoint 900Mhz,,CP.AC.000008,6958265100093,,"$11,200",
,,,Ace Waypoint 2.4G,,CP.AC.000007,6958265100086,,"$11,200",
,,,Ace Waypoint 900Mhz (Function activation cost),,CP.AC.000008,6958265100093,,"$8,000",
,,Spare,Ace One GPS module,,CP.AC.000018,6958265100031,,/,maintenance services ONLY
,,,Ace One IMU,,CP.AC.000017,6958265100048,,$630,
,,,Ace One MC,,CP.AC.000016,6958265100024,,$480,
,LIGHTBRIDGE 2,Main,DJI LIGHTBRIDGE 2,,CP.AL.000027.02,6958265107313,190021001404,$999,
,,Spare,LIGHTBRIDGE 2  PART1 White Ground Unit,,CP.AL.000024,6958265107283,190021001305,$549,
,,,LIGHTBRIDGE 2  PART2 White Air Unit,,CP.AL.000025,6958265107290,190021001312,$499,
,,,LIGHTBRIDGE 2  PART7 White HDMI Monitor Holder,,CP.AL.000045,6958265107498,190021001442,$39,
,,,LIGHTBRIDGE 2  PART9 White SDI Cable&Holder,,CP.AL.000047,6958265107511,190021001466,$35,
,,,LIGHTBRIDGE 2  PART11 Cables,,CP.AL.000049,6958265107535,190021001480,/,maintenance services ONLY
,,,LIGHTBRIDGE 2  PART12 Antennas&Antenna Holder,,CP.AL.000050,6958265107542,190021001510,$30,
,Lightbridge,Main,DJI LIGHTBRIDG,,CP.AL.000005,6958265107108,,$999,
,,,"Add on price of 2.4G Full HD Digital Video Downlink
(when purchasing any DJI Gimbal or High-end Combo, listed as follows: 
5D (HD)/GH4/BMPCC/RONIN; S900+WKM/A2; S900+WKM/A2+GH4/BMPCC; S1000+WKM/A2; S1000+WKM/A2+5D(HD)/GH4/BMPCC)",,,,,$499,
,,Spare,"PART1 Accessory pack for Phantom 2
(Smartphone holder, Lightbridge ground system holder and GoPro HDMI cable）",,CP.AL.000008,6958265107146,,$59,
,,,PART2 Air System,,CP.AL.000009,6958265107153,,$399,
,,,PART3 Ground System,,CP.AL.000010,6958265107160,,$449,
,,,PART4 Air System Antenna,,CP.AL.000011,6958265107177,,$9,
,,,PART5 Ground System Antenna,,CP.AL.000012,6958265107184,,$9,
,,,PART6 Air system antenna extension and panel antenna holder,,CP.AL.000013,6958265107191,,$9,
,,,PART7 Charger,,CP.AL.000014,6958265107207,,$30,
,,,"PART8 Remote controller cables (Y, I cables, rectangular and snap headed)",,CP.AL.000015,6958265107214,,$10,
,,,PART9 Accessory pack (AV cable and CAN-Bus power cables),,CP.AL.000007,6958265107115,,$10,
,,,PART10 GoPro HDMI cable,,CP.AL.000016,6958265107221,,$29,
,,,PART11 Z15 gimbal HDMI cable,,CP.AL.000017,6958265107238,,$39,
,,,PART12 Ground system holder,,CP.AL.000018,6958265107245,,$20,
,,,PART13 Smartphone holder,,CP.AL.000019,6958265107252,,$15,
,IOSD,Main,IOSD MARK II,,CP.IS.000003,6958265107023,,$89,
,,,IOSD Mini,,CP.IS.000004,6958265107078,,$69,
,,Combo,2.4Ghz datalink with Blue tooth + iOS ground station,,CP.AC.000013,6958265107016,,$149,
Ronin,Guidance,Main,Guidance,,CP.VL.000003,6958265119002,190021000278,$999,
,,Spare,GUIDANCE VBUS Cable（L=200mm）,,CP.VL.000006,6958265119019,190021004047,$35,
,,,GUIDANCE VBUS Cable（L=350mm）,,CP.VL.000007,6958265119026,190021004054,$37,
,,,GUIDANCE VBUS Cable（L=650mm）,,CP.VL.000008,6958265119033,190021004061,$39,
,,,GUIDANCE CAN-Bus Cable&UART Cable,,CP.VL.000009,6958265119040,190021004078,$5,
Hobby,Auxiliary,Combo,IOSDmini+2.4GBT Datalink(FCC)(IPAD GS+16WP free)+CAN-HUB,,,,,$229,
,Flame wheel,Kit,"F450 ARF kit(with motors, ESC, props)",,CP.FQ.000002,6958265104015,,$190,
,,,"F550 ARF kit(with motors, ESC, props)",,CP.FQ.000003,6958265104022,,$318,
,,Spare,Flame Wheel-F450,,,,,/,maintenance services ONLY
,,,Flame Wheel-F550,,,,,/,maintenance services ONLY
,,,"F450 Frame arm (BLACK, 2pc)",,CP.FQ.000026,6958265104220,,$8,
,,,"F450 Frame arm (RED, 2pc)",,CP.FQ.000027,6958265104237,,$8,
,,,"F450 Frame arm (WHITE, 2pc)",,CP.FQ.000025,6958265104213,,$8,
,,,Motor 2212,,,,,$24,
,,,Motor 2212 cap(10PCS),,CP.FQ.000015,6958265109249,,$15,
,,,18A,,,,,$18,
,,,F450 central board (top-bottom),,,,,$16,
,,,F550 central board (top-bottom),,,,,$24,
,,,F450/F550 landing gear,,CP.FQ.000009,6958265104114,,$5,
,Naza-M,Spare,Naza-M V2 GPS,,CP.NZ.000013,6958265103131,,$45,
,,,Naza-M PMU V2,,CP.NZ.000024,6958265103100,,$65,
,,,Naza-M LED module,,CP.NZ.000023,6958265103117,,$10,
,,,BTU,,CP.NZ.000018,6958265103124,,/,maintenance services ONLY
,,Combo,Naza-M V2&GPS Combo,,CP.NZ.000011,6958265103179,,$159,
,,,Naza-M V2&GPS + F450 ARF + F450 landing gear,,,,,$299,
,,,Naza-M V2&GPS + F550 ARF + F450 landing gear,,,,,$429,
,NAZA-M lite,Spare,Naza-M Lite,,,,,$49,
,,,Naza-M Lite GPS module,,,,,$39,
,,,LED,,CP.NZ.000022,6958265103209,,/,maintenance services ONLY
,,,PMU,,CP.NZ.000020,6958265103193,,$8,
,,Combo,Naza-M Lite&GPS Combo,,,,,$79,
,,,Naza-M Lite&GPS Combo+F450 ARF Kit+Landing Skid,,,,,$239,
,,,Naza-M Lite&GPS Combo+F550 ARF Kit+Landing Skid,,,,,$369,
,NAZA-M,Spare,NAZA-M BEC,,,,,$16,
,NAZA-H,Combo,Naza-H&GPS  Combo,,,,,$459,
,,Spare,Naza-H,,CP.NZ.000001,6958265108006,,$269,
,,,Naza-H GPS module,,CP.NZ.000027,6958265108013,,$179,
,,,Naza-H BEC,,CP.NZ.000007,6958265108020,,$55,
,Takyon,Main,Takyon Z318 Electronic speed controller,,CP.WK.000058,6958265102295,190021008427,$10,
,,,Takyon Z420 Electronic speed controller,,CP.WK.000059,6958265102301,190021008434,$11,
,,,Takyon Updater,,CP.WK.000083,6958265102592,190021014381,$10,
,DT7(include transmitter and receiver),Main,Normal price,,CP.FQ.000028,6958265117008,,$159,
,,,"Add-on price for DT7(when purchasing any DJI Main Controllers [NAZA series, Wookong series, A2 series]) ",,,,,$100,
,,Spare,Part 37 ZH3-2D  Anti-Drop Cover & Screw(for Phantom 2 version only),,CP.ZM.000054,6958265106446,,$39,
,,,Part 38 ZH3-2D Mounting Brackets (for Phantom 2 version only),,CP.ZM.000055,6958265106453,,$75,
,,,Part 14. H3-2D Cable Package,,CP.ZM.000031,6958265106248,,$24,
,,,Part 15. H3-2D Damping Rubber,,CP.ZM.000032,6958265106255,,$4,
,,,Part 16. H3-2D Vibration Absorbing plate (Maxon motor version),,CP.ZM.000033,6958265106262,,$70,
,,,Part 17. H3-2D Vibration Absorbing plate (DJI motor version),,CP.ZM.000034,6958265106279,,$20,
,,,Part 18. H3-2D Screws pack,,CP.ZM.000035,6958265106286,,$8,
,,,Part 19. H3-2D GCU,,CP.ZM.000036,6958265106293,,$160,
,,,Part 20. H3-2D Camera Mounting Parts(Maxon motor version),,CP.ZM.000037,6958265106309,,$30,
,,,Part 21. H3-2D Camera Locker (DJI motor version),,CP.ZM.000038,6958265106316,,$16,
Hobby,H3-3D,Main,Zenmuse H3-3D Customized for P2,,CP.ZM.000061,6958265106491,,$199,
,,,Zenmuse H3-3D Standard,,CP.ZM.000052,6958265106507,,$239,
,,Spare,H3-3D mounting Adapter for Phantom 2(old),H3-3D Part 10,CP.PT.000107,6958265106569,,$15,
,,,ZH3-3D Camera Securing Bracket,H3-3D Part 39,CP.ZM.000062,6958265106576,,$16,
,,,ZH3-3D Damping Unit Securing Kits,H3-3D Part 40,CP.ZM.000063,6958265106583,,$5,
,,,ZH3-3D Damping Rubber,H3-3D Part 42,CP.ZM.000065,6958265106590,,$4,
,,,ZH3-3D Anti-interference Reinforcement Board,H3-3D Part 44,CP.ZM.000067,6958265106552,,$20,
,,,ZH3-3D Screws Pack,H3-3D Part 45,CP.ZM.000068,6958265106613,,$8,
,,,ZH3-3D GCU,H3-3D Part 46,CP.ZM.000069,6958265106620,,$160,
,,,ZH3-3D Cable Pack Package,H3-3D Part 47,CP.ZM.000070,6958265106637,,$24,
,,,ZH3-3D Damping Unit(Upper Bracket),H3-3D Part 48,CP.ZM.000071,6958265106644,,$15,
,,,ZH3-3D  Mounting Adapter for Phantom,H3-3D Part 49,CP.ZM.000072,6958265106651,,$15,
,,,ZH3-2D/3D Mounting Adapter for Flame Wheel 550,H3-3D Part 50,CP.ZM.000073,6958265106668,,$24,
,,,ZH3-3D  Mounting Adapter for Flame Wheel 450,H3-3D Part 51,CP.ZM.000076,6958265106675,,$11,
,,,ZH3-3D Video Output Connection Cable,H3-3D Part 56,CP.ZM.000083,6958265106774,,$4,
,H4-3D,Main,H4-3D for Phantom 2,,CP.ZM.000145,6958265113352,,$199,Without GCU
,,Spare,H4-3D Camera Securing Bracket,H4-3D Part 1,CP.ZM.000148,6958265113369,,$16,
,,,H4-3D Damping Unit Securing Kits,H4-3D Part 2,CP.ZM.000149,6958265113376,,$5,
,,,H4-3D Damping Rubber,H4-3D Part 3,CP.ZM.000150,6958265113383,,$4,
,,,H4-3D Screws Pack,H4-3D Part 4,CP.ZM.000151,6958265113390,,$8,
,,,H4-3D Cable Pack Package,H4-3D Part 5,CP.ZM.000152,6958265113406,,$24,
,,,H4-3D Damping Unit(Upper Bracket),H4-3D Part 6,CP.ZM.000153,6958265113413,,$15,
,,,H4-3D Mounting Adapter for Flame Wheel 550,H4-3D Part 7,CP.ZM.000154,6958265113420,,$24,
,,,H4-3D Mounting Adapter for Flame Wheel 450,H4-3D Part 8,CP.ZM.000155,6958265113437,,$11,
,,,H4-3D Video Output Connection Cable,H4-3D Part 9,CP.ZM.000156,6958265113444,,$4,
,,,H4-3D GCU,H4-3D Part 10,CP.ZM.000157,6958265113451,,$160,
High-End,Zenmuse,Main,ZENMUSE Z3,,,,,$899,MOQ: 20
,,,Zenmuse M1,,CP.ZM.000527,6958265142758,190021288669,$169,
,Gimbal Zenmuse,Main,Z15-5D MARK II,,,,,"$2,999",
,,,Z15-5D MARK III(HD),,CP.ZM.000084,,,"$1,599",
,,,Z15 (Sony NEX5N),,CP.ZM.000001,6958265106002,,"$2,499",
,,,Z15 (Sony NEX7),,CP.ZM.000002,6958265106019,,$999,
,,,Z15 (Sony NEX5R),,CP.ZM.000018,6958265106231,,"$2,499",
,,,Z15-BMPCC,,CP.ZM.000051,6958265106484,,$999,
,,,Z15-GH4 (HD),,CP.ZM.000077,6958265106781,,$999,
,,,Z15 A7,,CP.ZM.000158,6958265113581,,$999,
,,Spare,Z15 CAN-Bus HUB,Z15 Part 1,CP.ZM.000005,6958265106101,,$68,
,,,Z15 HDMI-AV Cable,Z15 Part 2,CP.ZM.000006,6958265106040,,$48,
,,,Z15 Cable Package-GH2,Z15 Part 3,,,,$24,
,,,Z15 Cable Package-NEX,Z15 Part 3,CP.ZM.000007,6958265106217,,$34,
,,,Z15 Gimbal Power & CAN-Bus Control Module,Z15 Part 4,CP.ZM.000009,6958265106064,,$230,
,,,Z15 Mounting Bracket,Z15 Part 5,CP.ZM.000010,6958265106071,,$32,
,,,Z15 Damper mounting Parts,Z15 Part 6,CP.ZM.000011,6958265106088,,$42,
,,,Z15 Damping Rubber,Z15 Part 7,CP.ZM.000012,6958265106095,,$4,
,,,Z15 Camera Mounting Parts-GH2,Z15 Part 8,CP.ZM.000014,6958265106118,,$42,
,,,Z15 Camera Mounting Parts-NEX,Z15 Part 8,CP.ZM.000013,6958265106125,,$12,
,,,Z15 Lens mounting Parts-NEX,Z15 Part 9,CP.ZM.000015,6958265106132,,$90,
,,,Z15 HDMI-AV board-NEX,Z15 Part 10,CP.ZM.000016,6958265106149,,$45,
,,,Z15 HDMI-AV board-G,Z15 Part 10,,,,$45,
,,,Z15 Mounting Frame,Z15 Part 11,CP.ZM.000017,6958265106224,,$100,
,,,Z15 Cable Package-GH3,Z15 Part 22,CP.ZM.000040,6958265106330,,$22,
,,,Z15 GCU-GH3,Z15 Part 23,CP.ZM.000041,6958265106347,,$200,
,,,Z15 Damper Mounting Parts-GH3,Z15 Part 24,CP.ZM.000042,6958265106354,,$38,
,,,Z15 Mounting Frame-GH3,Z15 Part 25,CP.ZM.000043,6958265106361,,$90,
,,,Z15 Camera Mounting Parts-GH3,Z15 Part 27,CP.ZM.000020,6958265106385,,$38,
,,,Z15 Mounting Package-5D,Z15 Part 28,CP.ZM.000045,6958265106514,,$165,
,,,Z15 GCU-5D,Z15 Part 29,CP.ZM.000046,6958265106521,,$200,
,,,Z15 Cable Package-5D,Z15 Part 30,CP.ZM.000047,6958265106538,,$65,
,,,Z15 Damper Mounting Parts-5D,Z15 Part 31,CP.ZM.000048,6958265106545,,$38,
,,,Z15-BMPCC GCU Module,Z15-BMPCC Part 32,CP.ZM.000056,6958265106682,,$200,
,,,Z15-BMPCC HDMI PCBA Board,Z15-BMPCC Part 33,CP.ZM.000057,6958265106699,,$230,
,,,Z15-BMPCC Camera Mounting Unit,Z15-BMPCC Part 34,CP.ZM.000058,6958265106705,,$65,
,,,Z15-BMPCC HDMI Cable,Z15-BMPCC Part 35,CP.ZM.000059,6958265106712,,$50,
,,,Z15-BMPCC Cable Pack,Z15-BMPCC Part 36,CP.ZM.000060,6958265106729,,$30,
,,,Z15-BMPCC Damping Unit,Z15-BMPCC Part 52,CP.ZM.000079,6958265106736,,$35,
,,,Z15-BMPCC Gimbal Mounting Bracket,Z15-BMPCC Part 53,CP.ZM.000080,6958265106743,,$130,
,,,Z15-BMPCC Gimbal Mounting Clamp,Z15-BMPCC Part 54,CP.ZM.000081,6958265106750,,$25,
,,,Z15-BMPCC Rubber Damper,Z15-BMPCC Part 55,CP.ZM.000082,6958265106767,,$3,
,,,Z15-GH4 GCU Module,Z15-GH4 Part 57,CP.ZM.000085,6958265106798,,$200,
,,,Z15-GH4 HDMI PCBA Board,Z15-GH4 Part 58,CP.ZM.000086,6958265106804,,$230,
,,,Z15-GH4 Camera Mounting Unit,Z15-GH4 Part 59,CP.ZM.000087,6958265106811,,$40,
,,,Z15-GH4 HDMI Cable,Z15-GH4 Part 60,CP.ZM.000088,6958265106828,,$50,
,,,Z15-GH4 Cable Pack,Z15-GH4 Part 61,CP.ZM.000089,6958265106835,,$25,
,,,Z15-GH4 Rubber Damper,Z15-GH4 Part 62,CP.ZM.000090,6958265106842,,$3,
,,,Z15-GH4 Gimbal Mounting Bracket,Z15-GH4 Part 63,CP.ZM.000091,6958265106859,,$130,
,,,Z15-GH4 Gimbal Mounting Clamp,Z15-GH4 Part 64,CP.ZM.000092,6958265106866,,$25,
,,,Z15-GH4 Damping Unit,Z15-GH4 Part 65,CP.ZM.000093,6958265106873,,$40,
,,,Z15-GH3（HD）HD37.92158MI Cable,Z15-GH4 Part 66,CP.ZM.000094,6958265106880,,$50,
,,,Z15-5D(HD) GCU Module,Z15-5D Part 67,CP.ZM.000121,6958265106903,,$200,
,,,Z15-5D(HD) HDMI PCBA Board,Z15-5D Part 68,CP.ZM.000122,6958265106910,,$230,
,,,Z15-5D Camera Mounting Unit,Z15-5D Part 69,CP.ZM.000123,6958265106927,,$40,
,,,Z15-5D(HD) HDMI Cable,Z15-5D Part 70,CP.ZM.000124,6958265106934,,$50,
,,,Z15-5D(HD) Cable Pack,Z15-5D Part 71,CP.ZM.000125,6958265106941,,$25,
,,,Z15-5D Rubber Damper,Z15-5D Part 72,CP.ZM.000126,6958265106958,,$3,
,,,Z15-5D Gimbal Mounting Bracket,Z15-5D Part 73,CP.ZM.000127,6958265106965,,$130,
,,,Z15-5D Gimbal Mounting Clamp,Z15-5D Part 74,CP.ZM.000128,6958265106972,,$25,
,,,Z15-5D Damping Unit,Z15-5D Part 75,CP.ZM.000129,6958265106989,,$40,
,,,Z15-A7 GCU Module,Z15-A7 Part 79,CP.ZM.000161,6958265113482,,$200,
,,,Z15-A7 HDMI PCBA Board,Z15-A7 Part 80,CP.ZM.000162,6958265113499,,$230,
,,,Z15-A7 Camera Mounting Ring,Z15-A7 Part 81,CP.ZM.000163,6958265113505,,$40,
,,,Z15-A7 HDMI Cable,Z15-A7 Part 82,CP.ZM.000164,6958265113512,,$50,
,,,Z15-A7 Cable Pack,Z15-A7 Part 83,CP.ZM.000165,6958265113529,,$25,
,,,Z15-A7 Rubber Damper,Z15-A7 Part 84,CP.ZM.000166,6958265113536,,$3,
,,,Z15-A7 Gimbal Mounting Bracket,Z15-A7 Part 85,CP.ZM.000167,6958265113543,,$130,
,,,Z15-A7 Gimbal Mounting Clamp,Z15-A7 Part 86,CP.ZM.000168,6958265113550,,$25,
,,,Z15-A7 Damping Unit,Z15-A7 Part 87,CP.ZM.000169,6958265113567,,$40,
,,,Z15-A7 Camera Mounting Screw,Z15-A7 Part 88,CP.ZM.000170,6958265113574,,$6,
Propulsion System,Snail,Spare,DJI Snail Racing Propulsion System,,CP.EP.000132,6958265137976,190021283404,$89,
,,,DJI Snail 2305 Racing Motor,,CP.EP.000128,6958265137891,190021283329,$15,
,,,DJI Snail 430-R Racing ESC,,CP.EP.000131,6958265137983,190021283411,$14,
,,,DJI Snail ESC Programmer,,CP.EP.000130,6958265137969,190021283398,$7,
,,,DJI Snail 5048S Tri-blade Quick-release Propellers (2 pairs),,CP.EP.000120,6958265137884,190021283312,$4,
,,,DJI Snail 5048 Tri-blade Propellers  (2 pairs),,CP.EP.000121,6958265137907,190021283336,$4,
,,,DJI Snail 5024S Quick-release Propellers (2 pairs),,CP.EP.000122,6958265137877,190021283305,$4,
,,,DJI Snail 6030S Quick-release Propellers (2 pairs),,CP.EP.000123,6958265137945,190021283374,$4,
,,,DJI Snail 6-inch 3D Propellers (2 pairs),,CP.EP.000124,6958265137914,190021283343,$5,
,,,DJI Snail 7027S Quick-release Propellers (2 pairs),,CP.EP.000133,6958265137921,190021283350,$6,
,,,DJI Snail Quick-release Propeller Adapter (Single pair),,CP.EP.000125,6958265137938,190021283367,$4,
,,,DJI Snail Propeller Adapter (Single pair),,CP.EP.000129,6958265137952,190021283381,$5,
,E2000,,E2000 Standard 6010 Motor,,CP.EP.000088,6958265120046,190021003996,$259,
,,,2170 Carbon Fiber Reinforced Folding Propeller (CCW set),,CP.EP.000094,6958265120091,190021004290,$79,
,,,2170 Carbon Fiber Reinforced Folding Propeller (CW set),,CP.EP.000095,6958265120107,190021004306,$79,
,,,2170 Carbon Fiber Reinforced Folding Propeller (CCW blades),,CP.EP.000096,6958265120114,190021004313,$65,
,,,2170 Carbon Fiber Reinforced Folding Propeller (CW blades),,CP.EP.000097,6958265120121,190021004320,$65,
,,,2170 Folding Propeller Adapter,,CP.EP.000093,6958265120084,190021004283,$15,
,,,E2000 Pro Tuned Propulsion System (CCW),,CP.EP.000090,6958265120060,190021004269,$399,
,,,E2000 Pro Tuned Propulsion System (CW),,CP.EP.000091,6958265120077,190021004276,$399,
,,,E2000 6010 Motor Pro,,CP.EP.000102,6958265120206,190021005174,$249,
,,,E2000 Pro 1240X ESC Combo,,CP.EP.000099,6958265120145,190021004344,$85,
,,,E2000 Pro Motor Base,,CP.EP.000098,6958265120138,190021004337,$25,
,,,E2000 Motor Base(RED) Pro,,CP.EP.000107,6958265120404,190021008410,$25,
,,,E2000 1240S ESC,,CP.EP.000092,6958265120053,190021004009,$109,
,E300 E600,Main,E600 (4 x motor/ESC; 4 pair props; Accessories pack),,CP.EP.000006,6958265111006,,$239,
,,,E600 (6 x motor/ESC; 5 pair props; Accessories pack),,,,,$339,
,,Spare,"E600 12*4.2"" Self-tightening Black Props  ",,,,,$9,
,,,9'' Self-tightening props.(red strips),,CP.EP.000008,6958265111044,,$15,
,,,9'' Self-tightening props.(pink strips),,CP.EP.000019,6958265111181,,$15,
,,,9'' Self-tightening props.(blue strips),,CP.EP.000020,6958265111174,,$15,
,,,9'' Self-tightening white props,,CP.EP.000001,6958265111020,,$15,
,,,9'' Self-tightening light gray props,,CP.EP.000002,6958265111037,,$15,
,,,9'' white props(need nuts to fix),,CP.EP.000003,6958265111075,,$6,
,,,E300 2212 motor(CW+CCW),,CP.EP.000018,6958265111105,,$32,
,,,15A ESC,,CP.EP.000015,6958265111143,,$19,
,,,9450 Self-Tightening Rotor (Thrust Boosted),,CP.EP.000022,6958265111204,,$15,
,,,E300 Carbon Fiber Reinforced self-tightening propellers （with yellow stripes）,,,,,$17,"EOL, BUY E305"
,,,E300 Carbon Fiber Reinforced self-tightening propellers （with white stripes）,,,,,$17,"EOL, BUY E305"
,,,"12*4.2"" Self tightening black props (yellow strips)",,CP.EP.000009,6958265111082,,$19,
,,,"12*4.2"" Self tightening black props",,CP.EP.000010,6958265111099,,$19,
,,,3508 MOTOR(CCW),,CP.EP.000013,6958265111129,,$33,
,,,E600/E800 ESC 20A Injection Molded,,,,,$19,
,,,Propulsion System Tool Box,,CP.EP.000021,6958265111198,,$15,
,E310 E800,Main,E310x4  (4xmotor/ESC;4 pairs props; Accessories Pack; Updater for ESC),,CP.EP.000038,6958265111419,,$159,
,,,E310x6  (6xmotor/ESC;5 pairs props; Accessories Pack; Updater for ESC),,CP.EP.000039,6958265111426,,$229,
,,,E800x4  (4xmotor/ESC;4 pairs props; Accessories Pack; Updater for ESC),,CP.EP.000024,6958265111297,,$319,
,,,E800x6  (6xmotor/ESC;5 pairs props; Accessories Pack; Updater for ESC),,CP.EP.000025,6958265111310,,$469,
,,Spare,E310 Convenience Package,,CP.EP.000056,6958265111594,,$79,
,,,E800 Convenience Package,,CP.EP.000057,6958265111600,,$169,
,,,9450 Self-tightening Rotor(White With Pink Stripes),,CP.EP.000044,6958265111471,,$15,
,,,9450 Self-tightening Rotor(White With Blue Stripes),,CP.EP.000043,6958265111488,,$15,
,,,9450 Self-tightening Rotor(White With Red Stripes ),,CP.EP.000042,6958265111495,,$15,
,,,9450L Self-tightening Rotor(White With Red Stripes）,,CP.EP.000048,6958265111501,,$6,
,,,9450L Self-tightening Rotor(White With Blue Stripes),,CP.EP.000049,6958265111518,,$6,
,,,9450L Self-tightening Rotor(White With Pink Stripes),,CP.EP.000050,6958265111525,,$6,
,,,9450L Self-tightening Rotor(Gray),,CP.EP.000051,6958265111549,,$6,
,,,1360S Carbon Fiber Reinforced Quick-Release Propellers,,CP.EP.000108,6958265120268,190021005235,$15,
,,,E310 420S ESC,,CP.EP.000040,6958265111433,,$23,
,,,E310 2312 Motor CCW/CW,,CP.EP.000028,6958265111259,,$36,
,,,E800 3510 Motor（CW）,,CP.EP.000026,6958265111327,,$39,
,,,E800 3511 Motor（CCW）,,CP.EP.000027,6958265111334,,$39,
,,,E800 620S ESC,,CP.EP.000032,6958265111341,,$25,
,,,Ф22 Quick Release Rotor Adapter(CW&CCW),,CP.EP.000054,6958265111556,,$4,
,,,1345 Carbon Fiber Reinforced Quick Release Rotor(Black With White Stripes),,CP.EP.000052,6958265111563,,$10,
,,,1345 Carbon Fiber Reinforced Quick Release Rotor(Black With Yellow Stripes),,CP.EP.000053,6958265111570,,$10,
,,,1345 Carbon Fiber Reinforced Quick Release Rotor(Black,,CP.EP.000055,6958265111587,,$10,
,,,Updater for DJI Smart ESC,,CP.EP.000041,6958265111440,,$15,
,,,Tooling Box V2,,CP.EP.000029,6958265111266,,$15,
,E1200,,E1200 Pro Tuned Propulsion System,,CP.EP.000046,6958265111617,,$315,
,,,E1200 Pro Tuned Propulsion System  (Trade in),,,,,$236,
,,,E1200 S900 Propulsion Upgrade Kit for S900,,CP.EP.000058,6958265111631,,$349,
,,,E1200 S900 Propulsion Upgrade Kit for S900  (Trade in),,,,,$269,
,,,E1200 Tuned Propulsion System,,CP.EP.000047,6958265111624,,$209,
,,Spare,E1200 Upgrading Arm Tube for S900,,CP.EP.000060,6958265111655,,$34,
,,,E1200 1760 Folding Propeller,,,,,$15,
,,,E1200 1760 Folding Propeller Hub,,,,,$7,
,,,E1200 Pro 640S ESC,,,,,$45,
,,,E1200 Pro Motor Base,,CP.EP.000067,6958265111723,,$16,
,,,E1200 Pro 4216 Motor CW,,CP.EP.000068,6958265111730,,$99,
,,,E1200 Pro 4216 Motor CW  (Trade in),,,,,$40,
,,,E1200 Pro 4216 Motor CCW,,CP.EP.000069,6958265111747,,$99,
,,,E1200 Pro 4216 Motor CCW (Trade in),,,,,$40,
,,,E1200 4216 Motor CCW,,CP.EP.000070,6958265111754,,$55,
,,,E1200 4216 Motor CW,,CP.EP.000071,6958265111761,,$55,
,,,E1200 640S ESC,,CP.EP.000072,6958265111778,,$55,
,,,DJI E1200 Pro Motor Mount Kit,,CP.EP.000089,6958265120015,190021003583,$8,
,E5000,Main,DJI E5000 Tuned Propulsion System,,,,,,
,E305,,E305(4*Motor/ESC;3*Pair props;Accessories),,CP.EP.000073,6958265111785,,$149,
,,,E305(6*Motor/ESC;4*Pair props;Accessories),,CP.EP.000074,6958265111792,,$219,
,,,"E305(800KV, 4S)(4*Motor; 2*Pair props; Accessories)",,CP.EP.000075,6958265111808,,$79,
,,,"E305(960KV, 3S)(4*Motor; 2*Pair props; Accessories)",,CP.EP.000086,6958265111914,,$79,
,,Spare,"2312E Motor(800kv,CW)",,CP.EP.000076,6958265111815,,$18,
,,,"2312E Motor(800kv,CCW)",,CP.EP.000077,6958265111822,,$18,
,,,"2312E Motor(960kv,CW)",,CP.EP.000078,6958265111839,,$18,
,,,"2312E Motor(960kv,CCW)",,CP.EP.000079,6958265111846,,$18,
,,,420LITE ESC,,CP.EP.000080,6958265111853,,$20,
,,,"9450 Carbon Fiber Self-tightening Rotor (composite hub, black with white stripes)",,CP.EP.000083,6958265111884,,$15,
,,,"9450 Carbon Fiber Self-tightening Rotor (composite hub,black with yellow stripes)",,CP.EP.000084,6958265111891,,$15,
,,,"9450 Carbon Fiber Self-tightening Rotor (composite hub,  black)",,CP.EP.000085,6958265111907,,$15,
,,,"9450 Self-tightening Rotor (composite hub, white with gold stripes)",,CP.EP.000081,6958265111860,,$7,
,,,"9450 Self-tightening Rotor (composite hub, white with silver stripes)",,CP.EP.000082,6958265111877,,$7,
"DJI Care
& Refresh",DJI Care Refresh,Code,Mavic Pro,,CP.QT.000736,6958265134814,190021282810,$99,"Service fee for the 1st replacement is $79, 2nd one is $129"
,,,DJI Care Refresh（Phantom 4 Pro/Pro+）,,CP.QT.000822,6958265139772,190021285521,$149,
,,,DJI Care Refresh (Inspire 2）,,CP.QT.000838,6958265139932,190021285682,$299,
,,,DJI Care Refresh（X4S）,,CP.QT.000852,6958265140082,190021285828,$59,
,,,DJI Care Refresh（X5S）,,CP.QT.000866,6958265140228,190021285965,$189,
,,Card,Card DJI Care Refresh（Mavic Pro）NA,,CP.QT.000748,6958265134968,190021282964,$99,
,,,Card DJI Care Refresh（Inspire 2）NA,,CP.QT.000845,6958265140013,190021285750,$299,
,,,Card DJI Care Refresh（Zenmuse X4S）NA,,CP.QT.000859,6958265140150,190021285897,$59,
,,,Card DJI Care Refresh（Zenmuse X5S）NA,,CP.QT.000873,6958265140297,190021286030,$189,
,,,Card DJI Care Refresh（Phantom 4 Pro）NA,,CP.QT.000831,6958265139864,190021285613,$149,
,"DJI Care
(12 month)",Code,Phantom 3 Professional,,CP.QT.000087,6958265108891,190021006881,$279,
,,,Phantom 3 Advanced,,CP.QT.000088,6958265108907,190021006898,$199,
,,,Phantom 3 Standard,,CP.QT.000089,6958265108914,190021006904,$129,
,,,Phantom 3 4K,,CP.QT.000090,6958265108921,190021006911,$149,
,,,Phantom 4,,CP.QT.000137,6958265124440,190021007567,$219,
,,,Inspire 1 Pro,,CP.QT.000218,6958265125010,190021008762,$549,
,,,Inspire 1 Raw,,CP.QT.000219,6958265125027,190021008779,$819,
,,,Inspire 1 V2.0,,CP.QT.000086,6958265108884,190021006874,$399,
,,Card,Phantom 3 Professional,,CP.QT.000192,6958265124914,190021008076,$279,
,,,Phantom 3 Advanced,,CP.QT.000193,6958265124921,190021008083,$199,
,,,Phantom 3 Standard,,CP.QT.000194,6958265124938,190021008090,$129,
,,,Phantom 3 4K,,CP.QT.000195,6958265124945,190021008106,$149,
,,,Phantom 4,,CP.QT.000171,6958265124723,190021007888,$219,
,,,Inspire 1 V2.0,,CP.QT.000191,6958265124907,190021008069,$399,